/*
WARNING: Do NOT edit the input and output ports in this file in a text
editor if you plan to continue editing the block that represents it in
the Block Editor! File corruption is VERY likely to occur.
*/
/*
Copyright (C) 1991-2013 Altera Corporation
Your use of Altera Corporation's design tools, logic functions 
and other software and tools, and its AMPP partner logic 
functions, and any output files from any of the foregoing 
(including device programming or simulation files), and any 
associated documentation or information are expressly subject 
to the terms and conditions of the Altera Program License 
Subscription Agreement, Altera MegaCore Function License 
Agreement, or other applicable license agreement, including, 
without limitation, that your use is for the sole purpose of 
programming logic devices manufactured by Altera and sold by 
Altera or its authorized distributors.  Please refer to the 
applicable agreement for further details.
*/
(header "graphic" (version "1.4"))
(pin
	(input)
	(rect -160 168 8 184)
	(text "INPUT" (rect 133 0 161 10)(font "Arial" (font_size 6)))
	(text "FX2_flags[2..0]" (rect 5 0 80 12)(font "Arial" ))
	(pt 168 8)
	(drawing
		(line (pt 92 12)(pt 117 12))
		(line (pt 92 4)(pt 117 4))
		(line (pt 121 8)(pt 168 8))
		(line (pt 92 12)(pt 92 4))
		(line (pt 117 4)(pt 121 8))
		(line (pt 117 12)(pt 121 8))
	)
	(text "VCC" (rect 136 7 156 17)(font "Arial" (font_size 6)))
	(annotation_block (location)(rect -208 120 -160 168))
)
(pin
	(input)
	(rect -160 184 8 200)
	(text "INPUT" (rect 133 0 161 10)(font "Arial" (font_size 6)))
	(text "FX2_PA_7" (rect 5 0 55 12)(font "Arial" ))
	(pt 168 8)
	(drawing
		(line (pt 92 12)(pt 117 12))
		(line (pt 92 4)(pt 117 4))
		(line (pt 121 8)(pt 168 8))
		(line (pt 92 12)(pt 92 4))
		(line (pt 117 4)(pt 121 8))
		(line (pt 117 12)(pt 121 8))
	)
	(text "VCC" (rect 136 7 156 17)(font "Arial" (font_size 6)))
	(annotation_block (location)(rect -208 200 -160 216))
)
(pin
	(input)
	(rect -1008 640 -840 656)
	(text "INPUT" (rect 133 0 161 10)(font "Arial" (font_size 6)))
	(text "FX2_CLK" (rect 5 0 51 12)(font "Arial" ))
	(pt 168 8)
	(drawing
		(line (pt 92 12)(pt 117 12))
		(line (pt 92 4)(pt 117 4))
		(line (pt 121 8)(pt 168 8))
		(line (pt 92 12)(pt 92 4))
		(line (pt 117 4)(pt 121 8))
		(line (pt 117 12)(pt 121 8))
	)
	(text "VCC" (rect 136 7 156 17)(font "Arial" (font_size 6)))
	(annotation_block (location)(rect -1008 624 -960 640))
)
(pin
	(input)
	(rect -472 320 -304 336)
	(text "INPUT" (rect 133 0 161 10)(font "Arial" (font_size 6)))
	(text "Detector1" (rect 5 0 53 12)(font "Arial" ))
	(pt 168 8)
	(drawing
		(line (pt 92 12)(pt 117 12))
		(line (pt 92 4)(pt 117 4))
		(line (pt 121 8)(pt 168 8))
		(line (pt 92 12)(pt 92 4))
		(line (pt 117 4)(pt 121 8))
		(line (pt 117 12)(pt 121 8))
	)
	(text "GND" (rect 136 7 157 17)(font "Arial" (font_size 6)))
	(annotation_block (location)(rect -528 320 -480 336))
)
(pin
	(input)
	(rect -472 304 -304 320)
	(text "INPUT" (rect 133 0 161 10)(font "Arial" (font_size 6)))
	(text "Detector2" (rect 5 0 53 12)(font "Arial" ))
	(pt 168 8)
	(drawing
		(line (pt 92 12)(pt 117 12))
		(line (pt 92 4)(pt 117 4))
		(line (pt 121 8)(pt 168 8))
		(line (pt 92 12)(pt 92 4))
		(line (pt 117 4)(pt 121 8))
		(line (pt 117 12)(pt 121 8))
	)
	(text "GND" (rect 136 7 157 17)(font "Arial" (font_size 6)))
	(annotation_block (location)(rect -528 304 -480 320))
)
(pin
	(input)
	(rect -472 288 -304 304)
	(text "INPUT" (rect 133 0 161 10)(font "Arial" (font_size 6)))
	(text "Detector3" (rect 5 0 53 12)(font "Arial" ))
	(pt 168 8)
	(drawing
		(line (pt 92 12)(pt 117 12))
		(line (pt 92 4)(pt 117 4))
		(line (pt 121 8)(pt 168 8))
		(line (pt 92 12)(pt 92 4))
		(line (pt 117 4)(pt 121 8))
		(line (pt 117 12)(pt 121 8))
	)
	(text "GND" (rect 136 7 157 17)(font "Arial" (font_size 6)))
	(annotation_block (location)(rect -528 288 -480 304))
)
(pin
	(input)
	(rect -472 272 -304 288)
	(text "INPUT" (rect 133 0 161 10)(font "Arial" (font_size 6)))
	(text "Detector4" (rect 5 0 53 12)(font "Arial" ))
	(pt 168 8)
	(drawing
		(line (pt 92 12)(pt 117 12))
		(line (pt 92 4)(pt 117 4))
		(line (pt 121 8)(pt 168 8))
		(line (pt 92 12)(pt 92 4))
		(line (pt 117 4)(pt 121 8))
		(line (pt 117 12)(pt 121 8))
	)
	(text "GND" (rect 136 7 157 17)(font "Arial" (font_size 6)))
	(annotation_block (location)(rect -528 272 -480 288))
)
(pin
	(input)
	(rect -1000 760 -832 776)
	(text "INPUT" (rect 133 0 161 10)(font "Arial" (font_size 6)))
	(text "External_clock" (rect 5 0 76 12)(font "Arial" ))
	(pt 168 8)
	(drawing
		(line (pt 92 12)(pt 117 12))
		(line (pt 92 4)(pt 117 4))
		(line (pt 121 8)(pt 168 8))
		(line (pt 92 12)(pt 92 4))
		(line (pt 117 4)(pt 121 8))
		(line (pt 117 12)(pt 121 8))
	)
	(text "GND" (rect 136 7 157 17)(font "Arial" (font_size 6)))
	(annotation_block (location)(rect -1024 744 -976 760))
)
(pin
	(output)
	(rect 760 168 936 184)
	(text "OUTPUT" (rect 1 0 39 10)(font "Arial" (font_size 6)))
	(text "FX2_PA_2" (rect 90 0 140 12)(font "Arial" ))
	(pt 0 8)
	(drawing
		(line (pt 0 8)(pt 52 8))
		(line (pt 52 4)(pt 78 4))
		(line (pt 52 12)(pt 78 12))
		(line (pt 52 12)(pt 52 4))
		(line (pt 78 4)(pt 82 8))
		(line (pt 82 8)(pt 78 12))
		(line (pt 78 12)(pt 82 8))
	)
	(annotation_block (location)(rect 960 184 1008 200))
)
(pin
	(output)
	(rect 760 216 936 232)
	(text "OUTPUT" (rect 1 0 39 10)(font "Arial" (font_size 6)))
	(text "FX2_PA_5" (rect 90 0 140 12)(font "Arial" ))
	(pt 0 8)
	(drawing
		(line (pt 0 8)(pt 52 8))
		(line (pt 52 4)(pt 78 4))
		(line (pt 52 12)(pt 78 12))
		(line (pt 52 12)(pt 52 4))
		(line (pt 78 4)(pt 82 8))
		(line (pt 82 8)(pt 78 12))
		(line (pt 78 12)(pt 82 8))
	)
	(annotation_block (location)(rect 960 232 1008 248))
)
(pin
	(output)
	(rect 760 184 936 200)
	(text "OUTPUT" (rect 1 0 39 10)(font "Arial" (font_size 6)))
	(text "FX2_PA_3" (rect 90 0 140 12)(font "Arial" ))
	(pt 0 8)
	(drawing
		(line (pt 0 8)(pt 52 8))
		(line (pt 52 4)(pt 78 4))
		(line (pt 52 12)(pt 78 12))
		(line (pt 52 12)(pt 52 4))
		(line (pt 78 4)(pt 82 8))
		(line (pt 82 8)(pt 78 12))
		(line (pt 78 12)(pt 82 8))
	)
	(annotation_block (location)(rect 960 200 1008 216))
)
(pin
	(output)
	(rect 760 200 936 216)
	(text "OUTPUT" (rect 1 0 39 10)(font "Arial" (font_size 6)))
	(text "FX2_PA_4" (rect 90 0 140 12)(font "Arial" ))
	(pt 0 8)
	(drawing
		(line (pt 0 8)(pt 52 8))
		(line (pt 52 4)(pt 78 4))
		(line (pt 52 12)(pt 78 12))
		(line (pt 52 12)(pt 52 4))
		(line (pt 78 4)(pt 82 8))
		(line (pt 82 8)(pt 78 12))
		(line (pt 78 12)(pt 82 8))
	)
	(annotation_block (location)(rect 960 216 1008 232))
)
(pin
	(output)
	(rect 760 232 936 248)
	(text "OUTPUT" (rect 1 0 39 10)(font "Arial" (font_size 6)))
	(text "FX2_PA_6" (rect 90 0 140 12)(font "Arial" ))
	(pt 0 8)
	(drawing
		(line (pt 0 8)(pt 52 8))
		(line (pt 52 4)(pt 78 4))
		(line (pt 52 12)(pt 78 12))
		(line (pt 52 12)(pt 52 4))
		(line (pt 78 4)(pt 82 8))
		(line (pt 82 8)(pt 78 12))
		(line (pt 78 12)(pt 82 8))
	)
	(annotation_block (location)(rect 960 248 1008 264))
)
(pin
	(output)
	(rect 760 152 936 168)
	(text "OUTPUT" (rect 1 0 39 10)(font "Arial" (font_size 6)))
	(text "FX2_SLWR" (rect 90 0 146 12)(font "Arial" ))
	(pt 0 8)
	(drawing
		(line (pt 0 8)(pt 52 8))
		(line (pt 52 4)(pt 78 4))
		(line (pt 52 12)(pt 78 12))
		(line (pt 52 12)(pt 52 4))
		(line (pt 78 4)(pt 82 8))
		(line (pt 82 8)(pt 78 12))
		(line (pt 78 12)(pt 82 8))
	)
	(annotation_block (location)(rect 960 168 1008 184))
)
(pin
	(output)
	(rect 760 136 936 152)
	(text "OUTPUT" (rect 1 0 39 10)(font "Arial" (font_size 6)))
	(text "FX2_SLRD" (rect 90 0 144 12)(font "Arial" ))
	(pt 0 8)
	(drawing
		(line (pt 0 8)(pt 52 8))
		(line (pt 52 4)(pt 78 4))
		(line (pt 52 12)(pt 78 12))
		(line (pt 52 12)(pt 52 4))
		(line (pt 78 4)(pt 82 8))
		(line (pt 82 8)(pt 78 12))
		(line (pt 78 12)(pt 82 8))
	)
	(annotation_block (location)(rect 960 152 1008 168))
)
(pin
	(output)
	(rect 64 776 240 792)
	(text "OUTPUT" (rect 1 0 39 10)(font "Arial" (font_size 6)))
	(text "Test_clock3" (rect 90 0 149 12)(font "Arial" ))
	(pt 0 8)
	(drawing
		(line (pt 0 8)(pt 52 8))
		(line (pt 52 4)(pt 78 4))
		(line (pt 52 12)(pt 78 12))
		(line (pt 52 12)(pt 52 4))
		(line (pt 78 4)(pt 82 8))
		(line (pt 82 8)(pt 78 12))
		(line (pt 78 12)(pt 82 8))
	)
	(annotation_block (location)(rect 312 800 360 816))
)
(pin
	(output)
	(rect 64 800 240 816)
	(text "OUTPUT" (rect 1 0 39 10)(font "Arial" (font_size 6)))
	(text "Test_clock4" (rect 90 0 149 12)(font "Arial" ))
	(pt 0 8)
	(drawing
		(line (pt 0 8)(pt 52 8))
		(line (pt 52 4)(pt 78 4))
		(line (pt 52 12)(pt 78 12))
		(line (pt 52 12)(pt 52 4))
		(line (pt 78 4)(pt 82 8))
		(line (pt 82 8)(pt 78 12))
		(line (pt 78 12)(pt 82 8))
	)
	(annotation_block (location)(rect 296 832 344 848))
)
(pin
	(output)
	(rect -488 712 -312 728)
	(text "OUTPUT" (rect 1 0 39 10)(font "Arial" (font_size 6)))
	(text "FX2ClkOut" (rect 90 0 143 12)(font "Arial" ))
	(pt 0 8)
	(drawing
		(line (pt 0 8)(pt 52 8))
		(line (pt 52 4)(pt 78 4))
		(line (pt 52 12)(pt 78 12))
		(line (pt 52 12)(pt 52 4))
		(line (pt 78 4)(pt 82 8))
		(line (pt 82 8)(pt 78 12))
		(line (pt 78 12)(pt 82 8))
	)
	(annotation_block (location)(rect -400 728 -352 744))
)
(pin
	(output)
	(rect 64 720 240 736)
	(text "OUTPUT" (rect 1 0 39 10)(font "Arial" (font_size 6)))
	(text "PulseOut1" (rect 90 0 140 12)(font "Arial" ))
	(pt 0 8)
	(drawing
		(line (pt 0 8)(pt 52 8))
		(line (pt 52 4)(pt 78 4))
		(line (pt 52 12)(pt 78 12))
		(line (pt 52 12)(pt 52 4))
		(line (pt 78 4)(pt 82 8))
		(line (pt 82 8)(pt 78 12))
		(line (pt 78 12)(pt 82 8))
	)
	(annotation_block (location)(rect 264 736 312 752))
)
(pin
	(output)
	(rect 56 752 232 768)
	(text "OUTPUT" (rect 1 0 39 10)(font "Arial" (font_size 6)))
	(text "PulseOut2" (rect 90 0 140 12)(font "Arial" ))
	(pt 0 8)
	(drawing
		(line (pt 0 8)(pt 52 8))
		(line (pt 52 4)(pt 78 4))
		(line (pt 52 12)(pt 78 12))
		(line (pt 52 12)(pt 52 4))
		(line (pt 78 4)(pt 82 8))
		(line (pt 82 8)(pt 78 12))
		(line (pt 78 12)(pt 82 8))
	)
	(annotation_block (location)(rect 312 768 360 784))
)
(pin
	(bidir)
	(rect 944 120 1120 136)
	(text "BIDIR" (rect 1 0 25 10)(font "Arial" (font_size 6)))
	(text "FX2_FD[7..0]" (rect 90 0 156 12)(font "Arial" ))
	(pt 0 8)
	(drawing
		(line (pt 56 4)(pt 78 4))
		(line (pt 0 8)(pt 52 8))
		(line (pt 56 12)(pt 78 12))
		(line (pt 78 4)(pt 82 8))
		(line (pt 78 12)(pt 82 8))
		(line (pt 56 4)(pt 52 8))
		(line (pt 52 8)(pt 56 12))
	)
	(text "VCC" (rect 4 7 24 17)(font "Arial" (font_size 6)))
	(annotation_block (location)(rect 1120 152 1168 264))
)
(symbol
	(rect 400 536 448 568)
	(text "NOT" (rect 1 0 21 10)(font "Arial" (font_size 6)))
	(text "inst6" (rect 3 21 26 33)(font "Arial" ))
	(port
		(pt 0 16)
		(input)
		(text "IN" (rect 2 7 13 19)(font "Courier New" (bold))(invisible))
		(text "IN" (rect 2 7 13 19)(font "Courier New" (bold))(invisible))
		(line (pt 0 16)(pt 13 16))
	)
	(port
		(pt 48 16)
		(output)
		(text "OUT" (rect 32 7 49 19)(font "Courier New" (bold))(invisible))
		(text "OUT" (rect 32 7 49 19)(font "Courier New" (bold))(invisible))
		(line (pt 39 16)(pt 48 16))
	)
	(drawing
		(line (pt 13 25)(pt 13 7))
		(line (pt 13 7)(pt 31 16))
		(line (pt 13 25)(pt 31 16))
		(circle (rect 31 12 39 20))
	)
)
(symbol
	(rect 688 512 736 544)
	(text "NOT" (rect 1 0 21 10)(font "Arial" (font_size 6)))
	(text "inst7" (rect 3 21 26 33)(font "Arial" ))
	(port
		(pt 0 16)
		(input)
		(text "IN" (rect 2 7 13 19)(font "Courier New" (bold))(invisible))
		(text "IN" (rect 2 7 13 19)(font "Courier New" (bold))(invisible))
		(line (pt 0 16)(pt 13 16))
	)
	(port
		(pt 48 16)
		(output)
		(text "OUT" (rect 32 7 49 19)(font "Courier New" (bold))(invisible))
		(text "OUT" (rect 32 7 49 19)(font "Courier New" (bold))(invisible))
		(line (pt 39 16)(pt 48 16))
	)
	(drawing
		(line (pt 13 25)(pt 13 7))
		(line (pt 13 7)(pt 31 16))
		(line (pt 13 25)(pt 31 16))
		(circle (rect 31 12 39 20))
	)
)
(symbol
	(rect 32 624 96 672)
	(text "NOR2" (rect 1 0 26 10)(font "Arial" (font_size 6)))
	(text "inst8" (rect 3 37 26 49)(font "Arial" ))
	(port
		(pt 0 32)
		(input)
		(text "IN2" (rect 2 23 19 35)(font "Courier New" (bold))(invisible))
		(text "IN2" (rect 2 23 19 35)(font "Courier New" (bold))(invisible))
		(line (pt 0 32)(pt 14 32))
	)
	(port
		(pt 0 16)
		(input)
		(text "IN1" (rect 2 7 19 19)(font "Courier New" (bold))(invisible))
		(text "IN1" (rect 2 7 19 19)(font "Courier New" (bold))(invisible))
		(line (pt 0 16)(pt 14 16))
	)
	(port
		(pt 64 24)
		(output)
		(text "OUT" (rect 48 15 65 27)(font "Courier New" (bold))(invisible))
		(text "OUT" (rect 48 15 65 27)(font "Courier New" (bold))(invisible))
		(line (pt 54 24)(pt 64 24))
	)
	(drawing
		(line (pt 12 36)(pt 23 36))
		(line (pt 12 13)(pt 23 13))
		(arc (pt 46 24)(pt 23 13)(rect -6 13 53 72))
		(arc (pt 5 29)(pt 5 19)(rect -16 8 17 41))
		(arc (pt 23 35)(pt 46 24)(rect -6 -23 53 36))
		(circle (rect 46 20 54 28))
	)
)
(symbol
	(rect 184 -40 368 56)
	(text "summator" (rect 5 0 54 12)(font "Arial" ))
	(text "inst3" (rect 8 80 31 92)(font "Arial" ))
	(port
		(pt 0 32)
		(input)
		(text "increment" (rect 0 0 48 12)(font "Arial" ))
		(text "increment" (rect 21 27 69 39)(font "Arial" ))
		(line (pt 0 32)(pt 16 32))
	)
	(port
		(pt 0 48)
		(input)
		(text "readout_clr" (rect 0 0 54 12)(font "Arial" ))
		(text "readout_clr" (rect 21 43 75 55)(font "Arial" ))
		(line (pt 0 48)(pt 16 48))
	)
	(port
		(pt 0 64)
		(input)
		(text "clk" (rect 0 0 14 12)(font "Arial" ))
		(text "clk" (rect 21 59 35 71)(font "Arial" ))
		(line (pt 0 64)(pt 16 64))
	)
	(port
		(pt 184 32)
		(output)
		(text "sum_out[15..0]" (rect 0 0 74 12)(font "Arial" ))
		(text "sum_out[15..0]" (rect 89 27 163 39)(font "Arial" ))
		(line (pt 184 32)(pt 168 32)(line_width 3))
	)
	(drawing
		(rectangle (rect 16 16 168 80))
	)
)
(symbol
	(rect 192 432 352 600)
	(text "dcfifo0" (rect 62 1 105 17)(font "Arial" (font_size 10)))
	(text "inst4" (rect 8 152 31 164)(font "Arial" ))
	(port
		(pt 0 32)
		(input)
		(text "data[7..0]" (rect 0 0 53 14)(font "Arial" (font_size 8)))
		(text "data[7..0]" (rect 20 26 73 40)(font "Arial" (font_size 8)))
		(line (pt 0 32)(pt 16 32)(line_width 3))
	)
	(port
		(pt 0 56)
		(input)
		(text "wrreq" (rect 0 0 35 14)(font "Arial" (font_size 8)))
		(text "wrreq" (rect 20 50 55 64)(font "Arial" (font_size 8)))
		(line (pt 0 56)(pt 16 56))
	)
	(port
		(pt 0 72)
		(input)
		(text "wrclk" (rect 0 0 31 14)(font "Arial" (font_size 8)))
		(text "wrclk" (rect 26 66 57 80)(font "Arial" (font_size 8)))
		(line (pt 0 72)(pt 16 72))
	)
	(port
		(pt 0 104)
		(input)
		(text "rdreq" (rect 0 0 30 14)(font "Arial" (font_size 8)))
		(text "rdreq" (rect 20 98 50 112)(font "Arial" (font_size 8)))
		(line (pt 0 104)(pt 16 104))
	)
	(port
		(pt 0 120)
		(input)
		(text "rdclk" (rect 0 0 27 14)(font "Arial" (font_size 8)))
		(text "rdclk" (rect 26 114 53 128)(font "Arial" (font_size 8)))
		(line (pt 0 120)(pt 16 120))
	)
	(port
		(pt 160 40)
		(output)
		(text "wrfull" (rect 0 0 33 14)(font "Arial" (font_size 8)))
		(text "wrfull" (rect 113 34 146 48)(font "Arial" (font_size 8)))
		(line (pt 160 40)(pt 144 40))
	)
	(port
		(pt 160 96)
		(output)
		(text "q[7..0]" (rect 0 0 35 14)(font "Arial" (font_size 8)))
		(text "q[7..0]" (rect 111 90 146 104)(font "Arial" (font_size 8)))
		(line (pt 160 96)(pt 144 96)(line_width 3))
	)
	(port
		(pt 160 120)
		(output)
		(text "rdempty" (rect 0 0 46 14)(font "Arial" (font_size 8)))
		(text "rdempty" (rect 102 114 148 128)(font "Arial" (font_size 8)))
		(line (pt 160 120)(pt 144 120))
	)
	(drawing
		(text "(ack)" (rect 51 99 75 111)(font "Arial" ))
		(text "8 bits x 512 words" (rect 68 140 157 152)(font "Arial" ))
		(line (pt 16 16)(pt 144 16))
		(line (pt 144 16)(pt 144 152))
		(line (pt 144 152)(pt 16 152))
		(line (pt 16 152)(pt 16 16))
		(line (pt 16 84)(pt 144 84))
		(line (pt 16 132)(pt 144 132))
		(line (pt 16 66)(pt 22 72))
		(line (pt 22 72)(pt 16 78))
		(line (pt 16 114)(pt 22 120))
		(line (pt 22 120)(pt 16 126))
	)
)
(symbol
	(rect 984 512 1032 544)
	(text "NOT" (rect 1 0 21 10)(font "Arial" (font_size 6)))
	(text "inst9" (rect 3 21 26 33)(font "Arial" ))
	(port
		(pt 0 16)
		(input)
		(text "IN" (rect 2 7 13 19)(font "Courier New" (bold))(invisible))
		(text "IN" (rect 2 7 13 19)(font "Courier New" (bold))(invisible))
		(line (pt 0 16)(pt 13 16))
	)
	(port
		(pt 48 16)
		(output)
		(text "OUT" (rect 32 7 49 19)(font "Courier New" (bold))(invisible))
		(text "OUT" (rect 32 7 49 19)(font "Courier New" (bold))(invisible))
		(line (pt 39 16)(pt 48 16))
	)
	(drawing
		(line (pt 13 25)(pt 13 7))
		(line (pt 13 7)(pt 31 16))
		(line (pt 13 25)(pt 31 16))
		(circle (rect 31 12 39 20))
	)
)
(symbol
	(rect 984 544 1032 576)
	(text "NOT" (rect 1 0 21 10)(font "Arial" (font_size 6)))
	(text "inst10" (rect 3 21 32 33)(font "Arial" ))
	(port
		(pt 0 16)
		(input)
		(text "IN" (rect 2 7 13 19)(font "Courier New" (bold))(invisible))
		(text "IN" (rect 2 7 13 19)(font "Courier New" (bold))(invisible))
		(line (pt 0 16)(pt 13 16))
	)
	(port
		(pt 48 16)
		(output)
		(text "OUT" (rect 32 7 49 19)(font "Courier New" (bold))(invisible))
		(text "OUT" (rect 32 7 49 19)(font "Courier New" (bold))(invisible))
		(line (pt 39 16)(pt 48 16))
	)
	(drawing
		(line (pt 13 25)(pt 13 7))
		(line (pt 13 7)(pt 31 16))
		(line (pt 13 25)(pt 31 16))
		(circle (rect 31 12 39 20))
	)
)
(symbol
	(rect 504 456 664 600)
	(text "dcfifo2" (rect 62 1 105 17)(font "Arial" (font_size 10)))
	(text "inst5" (rect 8 128 31 140)(font "Arial" ))
	(port
		(pt 0 32)
		(input)
		(text "data[7..0]" (rect 0 0 53 14)(font "Arial" (font_size 8)))
		(text "data[7..0]" (rect 20 26 73 40)(font "Arial" (font_size 8)))
		(line (pt 0 32)(pt 16 32)(line_width 3))
	)
	(port
		(pt 0 56)
		(input)
		(text "wrreq" (rect 0 0 35 14)(font "Arial" (font_size 8)))
		(text "wrreq" (rect 20 50 55 64)(font "Arial" (font_size 8)))
		(line (pt 0 56)(pt 16 56))
	)
	(port
		(pt 0 72)
		(input)
		(text "rdreq" (rect 0 0 30 14)(font "Arial" (font_size 8)))
		(text "rdreq" (rect 20 66 50 80)(font "Arial" (font_size 8)))
		(line (pt 0 72)(pt 16 72))
	)
	(port
		(pt 0 96)
		(input)
		(text "clock" (rect 0 0 29 14)(font "Arial" (font_size 8)))
		(text "clock" (rect 26 90 55 104)(font "Arial" (font_size 8)))
		(line (pt 0 96)(pt 16 96))
	)
	(port
		(pt 160 32)
		(output)
		(text "q[7..0]" (rect 0 0 35 14)(font "Arial" (font_size 8)))
		(text "q[7..0]" (rect 111 26 146 40)(font "Arial" (font_size 8)))
		(line (pt 160 32)(pt 144 32)(line_width 3))
	)
	(port
		(pt 160 56)
		(output)
		(text "full" (rect 0 0 16 14)(font "Arial" (font_size 8)))
		(text "full" (rect 127 50 143 64)(font "Arial" (font_size 8)))
		(line (pt 160 56)(pt 144 56))
	)
	(port
		(pt 160 72)
		(output)
		(text "empty" (rect 0 0 34 14)(font "Arial" (font_size 8)))
		(text "empty" (rect 112 66 146 80)(font "Arial" (font_size 8)))
		(line (pt 160 72)(pt 144 72))
	)
	(drawing
		(text "(ack)" (rect 51 67 75 79)(font "Arial" ))
		(text "8 bits x 1024 words" (rect 63 116 158 128)(font "Arial" ))
		(line (pt 16 16)(pt 144 16))
		(line (pt 144 16)(pt 144 128))
		(line (pt 144 128)(pt 16 128))
		(line (pt 16 128)(pt 16 16))
		(line (pt 16 108)(pt 144 108))
		(line (pt 16 90)(pt 22 96))
		(line (pt 22 96)(pt 16 102))
	)
)
(symbol
	(rect 800 456 960 600)
	(text "dcfifo3" (rect 62 1 105 17)(font "Arial" (font_size 10)))
	(text "inst11" (rect 8 128 37 140)(font "Arial" ))
	(port
		(pt 0 32)
		(input)
		(text "data[7..0]" (rect 0 0 53 14)(font "Arial" (font_size 8)))
		(text "data[7..0]" (rect 20 26 73 40)(font "Arial" (font_size 8)))
		(line (pt 0 32)(pt 16 32)(line_width 3))
	)
	(port
		(pt 0 56)
		(input)
		(text "wrreq" (rect 0 0 35 14)(font "Arial" (font_size 8)))
		(text "wrreq" (rect 20 50 55 64)(font "Arial" (font_size 8)))
		(line (pt 0 56)(pt 16 56))
	)
	(port
		(pt 0 72)
		(input)
		(text "rdreq" (rect 0 0 30 14)(font "Arial" (font_size 8)))
		(text "rdreq" (rect 20 66 50 80)(font "Arial" (font_size 8)))
		(line (pt 0 72)(pt 16 72))
	)
	(port
		(pt 0 96)
		(input)
		(text "clock" (rect 0 0 29 14)(font "Arial" (font_size 8)))
		(text "clock" (rect 26 90 55 104)(font "Arial" (font_size 8)))
		(line (pt 0 96)(pt 16 96))
	)
	(port
		(pt 160 32)
		(output)
		(text "q[7..0]" (rect 0 0 35 14)(font "Arial" (font_size 8)))
		(text "q[7..0]" (rect 111 26 146 40)(font "Arial" (font_size 8)))
		(line (pt 160 32)(pt 144 32)(line_width 3))
	)
	(port
		(pt 160 56)
		(output)
		(text "full" (rect 0 0 16 14)(font "Arial" (font_size 8)))
		(text "full" (rect 127 50 143 64)(font "Arial" (font_size 8)))
		(line (pt 160 56)(pt 144 56))
	)
	(port
		(pt 160 72)
		(output)
		(text "empty" (rect 0 0 34 14)(font "Arial" (font_size 8)))
		(text "empty" (rect 112 66 146 80)(font "Arial" (font_size 8)))
		(line (pt 160 72)(pt 144 72))
	)
	(drawing
		(text "(ack)" (rect 51 67 75 79)(font "Arial" ))
		(text "8 bits x 1024 words" (rect 63 116 158 128)(font "Arial" ))
		(line (pt 16 16)(pt 144 16))
		(line (pt 144 16)(pt 144 128))
		(line (pt 144 128)(pt 16 128))
		(line (pt 16 128)(pt 16 16))
		(line (pt 16 108)(pt 144 108))
		(line (pt 16 90)(pt 22 96))
		(line (pt 22 96)(pt 16 102))
	)
)
(symbol
	(rect -616 368 -568 400)
	(text "NOT" (rect 1 0 21 10)(font "Arial" (font_size 6)))
	(text "inst21" (rect 3 21 32 33)(font "Arial" ))
	(port
		(pt 0 16)
		(input)
		(text "IN" (rect 2 7 13 19)(font "Courier New" (bold))(invisible))
		(text "IN" (rect 2 7 13 19)(font "Courier New" (bold))(invisible))
		(line (pt 0 16)(pt 13 16))
	)
	(port
		(pt 48 16)
		(output)
		(text "OUT" (rect 32 7 49 19)(font "Courier New" (bold))(invisible))
		(text "OUT" (rect 32 7 49 19)(font "Courier New" (bold))(invisible))
		(line (pt 39 16)(pt 48 16))
	)
	(drawing
		(line (pt 13 25)(pt 13 7))
		(line (pt 13 7)(pt 31 16))
		(line (pt 13 25)(pt 31 16))
		(circle (rect 31 12 39 20))
	)
)
(symbol
	(rect -1048 288 -952 384)
	(text "clicklatch" (rect 5 0 51 12)(font "Arial" ))
	(text "inst23" (rect 8 80 37 92)(font "Arial" ))
	(port
		(pt 0 32)
		(input)
		(text "click" (rect 0 0 22 12)(font "Arial" ))
		(text "click" (rect 21 27 43 39)(font "Arial" ))
		(line (pt 0 32)(pt 16 32))
	)
	(port
		(pt 0 48)
		(input)
		(text "clock" (rect 0 0 25 12)(font "Arial" ))
		(text "clock" (rect 21 43 46 55)(font "Arial" ))
		(line (pt 0 48)(pt 16 48))
	)
	(port
		(pt 96 32)
		(output)
		(text "data" (rect 0 0 21 12)(font "Arial" ))
		(text "data" (rect 58 27 79 39)(font "Arial" ))
		(line (pt 96 32)(pt 80 32))
	)
	(drawing
		(rectangle (rect 16 16 80 80))
	)
)
(symbol
	(rect 240 96 600 368)
	(text "FX2_sequential" (rect 5 0 79 12)(font "Arial" ))
	(text "inst12" (rect 8 256 37 268)(font "Arial" ))
	(port
		(pt 0 32)
		(input)
		(text "FX2_CLK" (rect 0 0 46 12)(font "Arial" ))
		(text "FX2_CLK" (rect 21 27 67 39)(font "Arial" ))
		(line (pt 0 32)(pt 16 32))
	)
	(port
		(pt 0 48)
		(input)
		(text "FX2_flags[2..0]" (rect 0 0 75 12)(font "Arial" ))
		(text "FX2_flags[2..0]" (rect 21 43 96 55)(font "Arial" ))
		(line (pt 0 48)(pt 16 48)(line_width 3))
	)
	(port
		(pt 0 64)
		(input)
		(text "FX2_PA_7" (rect 0 0 50 12)(font "Arial" ))
		(text "FX2_PA_7" (rect 21 59 71 71)(font "Arial" ))
		(line (pt 0 64)(pt 16 64))
	)
	(port
		(pt 0 80)
		(input)
		(text "FPGA_WORD[7..0]" (rect 0 0 96 12)(font "Arial" ))
		(text "FPGA_WORD[7..0]" (rect 21 75 117 87)(font "Arial" ))
		(line (pt 0 80)(pt 16 80)(line_width 3))
	)
	(port
		(pt 0 96)
		(input)
		(text "FPGA_WORD_AVAILIABLE" (rect 0 0 138 12)(font "Arial" ))
		(text "FPGA_WORD_AVAILIABLE" (rect 21 91 159 103)(font "Arial" ))
		(line (pt 0 96)(pt 16 96))
	)
	(port
		(pt 0 112)
		(input)
		(text "LENGTH[15..0]" (rect 0 0 75 12)(font "Arial" ))
		(text "LENGTH[15..0]" (rect 21 107 96 119)(font "Arial" ))
		(line (pt 0 112)(pt 16 112)(line_width 3))
	)
	(port
		(pt 360 48)
		(output)
		(text "FX2_SLRD" (rect 0 0 54 12)(font "Arial" ))
		(text "FX2_SLRD" (rect 294 43 348 55)(font "Arial" ))
		(line (pt 360 48)(pt 344 48))
	)
	(port
		(pt 360 64)
		(output)
		(text "FX2_SLWR" (rect 0 0 56 12)(font "Arial" ))
		(text "FX2_SLWR" (rect 292 59 348 71)(font "Arial" ))
		(line (pt 360 64)(pt 344 64))
	)
	(port
		(pt 360 80)
		(output)
		(text "FX2_PA_2" (rect 0 0 50 12)(font "Arial" ))
		(text "FX2_PA_2" (rect 297 75 347 87)(font "Arial" ))
		(line (pt 360 80)(pt 344 80))
	)
	(port
		(pt 360 96)
		(output)
		(text "FX2_PA_3" (rect 0 0 50 12)(font "Arial" ))
		(text "FX2_PA_3" (rect 297 91 347 103)(font "Arial" ))
		(line (pt 360 96)(pt 344 96))
	)
	(port
		(pt 360 112)
		(output)
		(text "FX2_PA_4" (rect 0 0 50 12)(font "Arial" ))
		(text "FX2_PA_4" (rect 297 107 347 119)(font "Arial" ))
		(line (pt 360 112)(pt 344 112))
	)
	(port
		(pt 360 128)
		(output)
		(text "FX2_PA_5" (rect 0 0 50 12)(font "Arial" ))
		(text "FX2_PA_5" (rect 297 123 347 135)(font "Arial" ))
		(line (pt 360 128)(pt 344 128))
	)
	(port
		(pt 360 144)
		(output)
		(text "FX2_PA_6" (rect 0 0 50 12)(font "Arial" ))
		(text "FX2_PA_6" (rect 297 139 347 151)(font "Arial" ))
		(line (pt 360 144)(pt 344 144))
	)
	(port
		(pt 360 160)
		(output)
		(text "FPGA_WORD_ACCEPTED" (rect 0 0 135 12)(font "Arial" ))
		(text "FPGA_WORD_ACCEPTED" (rect 225 155 360 167)(font "Arial" ))
		(line (pt 360 160)(pt 344 160))
	)
	(port
		(pt 360 176)
		(output)
		(text "PCINSTRUCTION[7..0]" (rect 0 0 116 12)(font "Arial" ))
		(text "PCINSTRUCTION[7..0]" (rect 241 171 357 183)(font "Arial" ))
		(line (pt 360 176)(pt 344 176)(line_width 3))
	)
	(port
		(pt 360 192)
		(output)
		(text "REQUEST_LENGTH" (rect 0 0 101 12)(font "Arial" ))
		(text "REQUEST_LENGTH" (rect 254 187 355 199)(font "Arial" ))
		(line (pt 360 192)(pt 344 192))
	)
	(port
		(pt 360 208)
		(output)
		(text "DEBUG0" (rect 0 0 44 12)(font "Arial" ))
		(text "DEBUG0" (rect 302 203 346 215)(font "Arial" ))
		(line (pt 360 208)(pt 344 208))
	)
	(port
		(pt 360 224)
		(output)
		(text "DEBUG1" (rect 0 0 44 12)(font "Arial" ))
		(text "DEBUG1" (rect 302 219 346 231)(font "Arial" ))
		(line (pt 360 224)(pt 344 224))
	)
	(port
		(pt 360 32)
		(bidir)
		(text "FX2_FD[7..0]" (rect 0 0 66 12)(font "Arial" ))
		(text "FX2_FD[7..0]" (rect 284 27 350 39)(font "Arial" ))
		(line (pt 360 32)(pt 344 32)(line_width 3))
	)
	(drawing
		(rectangle (rect 16 16 344 256))
	)
)
(symbol
	(rect -832 248 -656 440)
	(text "clockConverter" (rect 46 0 146 16)(font "Arial" (font_size 10)))
	(text "inst20" (rect 8 176 37 188)(font "Arial" ))
	(port
		(pt 0 48)
		(input)
		(text "data[0]" (rect 0 0 38 14)(font "Arial" (font_size 8)))
		(text "data[0]" (rect 20 41 58 55)(font "Arial" (font_size 8)))
		(line (pt 0 48)(pt 16 48))
	)
	(port
		(pt 0 72)
		(input)
		(text "wrreq" (rect 0 0 35 14)(font "Arial" (font_size 8)))
		(text "wrreq" (rect 20 65 55 79)(font "Arial" (font_size 8)))
		(line (pt 0 72)(pt 16 72))
	)
	(port
		(pt 0 88)
		(input)
		(text "wrclk" (rect 0 0 31 14)(font "Arial" (font_size 8)))
		(text "wrclk" (rect 20 81 51 95)(font "Arial" (font_size 8)))
		(line (pt 0 88)(pt 16 88))
	)
	(port
		(pt 0 120)
		(input)
		(text "rdreq" (rect 0 0 30 14)(font "Arial" (font_size 8)))
		(text "rdreq" (rect 20 113 50 127)(font "Arial" (font_size 8)))
		(line (pt 0 120)(pt 16 120))
	)
	(port
		(pt 0 136)
		(input)
		(text "rdclk" (rect 0 0 27 14)(font "Arial" (font_size 8)))
		(text "rdclk" (rect 20 129 47 143)(font "Arial" (font_size 8)))
		(line (pt 0 136)(pt 16 136))
	)
	(port
		(pt 176 56)
		(output)
		(text "wrfull" (rect 0 0 33 14)(font "Arial" (font_size 8)))
		(text "wrfull" (rect 129 49 162 63)(font "Arial" (font_size 8)))
		(line (pt 176 56)(pt 160 56))
	)
	(port
		(pt 176 112)
		(output)
		(text "q[0]" (rect 0 0 21 14)(font "Arial" (font_size 8)))
		(text "q[0]" (rect 139 105 160 119)(font "Arial" (font_size 8)))
		(line (pt 176 112)(pt 160 112))
	)
	(port
		(pt 176 136)
		(output)
		(text "rdempty" (rect 0 0 46 14)(font "Arial" (font_size 8)))
		(text "rdempty" (rect 118 129 164 143)(font "Arial" (font_size 8)))
		(line (pt 176 136)(pt 160 136))
	)
	(drawing
		(text "1 bit x 2 words" (rect 98 157 169 169)(font "Arial" ))
		(line (pt 16 100)(pt 160 100))
		(line (pt 16 148)(pt 160 148))
		(line (pt 16 32)(pt 160 32))
		(line (pt 160 32)(pt 160 181))
		(line (pt 160 181)(pt 16 181))
		(line (pt 16 181)(pt 16 32))
		(line (pt 0 0)(pt 177 0))
		(line (pt 177 0)(pt 177 199))
		(line (pt 0 199)(pt 177 199))
		(line (pt 0 0)(pt 0 199))
		(line (pt 0 0)(pt 0 0))
		(line (pt 0 0)(pt 0 0))
		(line (pt 0 0)(pt 0 0))
		(line (pt 0 0)(pt 0 0))
	)
)
(symbol
	(rect -784 584 -528 736)
	(text "altpll0" (rect 111 0 151 16)(font "Arial" (font_size 10)))
	(text "inst" (rect 8 136 25 148)(font "Arial" ))
	(port
		(pt 0 64)
		(input)
		(text "inclk0" (rect 0 0 31 14)(font "Arial" (font_size 8)))
		(text "inclk0" (rect 4 50 35 64)(font "Arial" (font_size 8)))
		(line (pt 0 64)(pt 40 64))
	)
	(port
		(pt 256 64)
		(output)
		(text "c0" (rect 0 0 14 14)(font "Arial" (font_size 8)))
		(text "c0" (rect 240 50 254 64)(font "Arial" (font_size 8)))
	)
	(port
		(pt 256 80)
		(output)
		(text "locked" (rect 0 0 36 14)(font "Arial" (font_size 8)))
		(text "locked" (rect 221 66 257 80)(font "Arial" (font_size 8)))
	)
	(drawing
		(text "Cyclone II" (rect 198 136 249 148)(font "Arial" ))
		(text "inclk0 frequency: 48.000 MHz" (rect 50 59 197 71)(font "Arial" ))
		(text "Operation Mode: Normal" (rect 50 72 169 84)(font "Arial" ))
		(text "Clk " (rect 51 93 71 105)(font "Arial" ))
		(text "Ratio" (rect 72 93 97 105)(font "Arial" ))
		(text "Ph (dg)" (rect 98 93 133 105)(font "Arial" ))
		(text "DC (%)" (rect 132 93 168 105)(font "Arial" ))
		(text "c0" (rect 54 107 65 119)(font "Arial" ))
		(text "1/1" (rect 77 107 92 119)(font "Arial" ))
		(text "0.00" (rect 104 107 125 119)(font "Arial" ))
		(text "50.00" (rect 136 107 163 119)(font "Arial" ))
		(line (pt 0 0)(pt 257 0))
		(line (pt 257 0)(pt 257 153))
		(line (pt 0 153)(pt 257 153))
		(line (pt 0 0)(pt 0 153))
		(line (pt 48 91)(pt 164 91))
		(line (pt 48 104)(pt 164 104))
		(line (pt 48 118)(pt 164 118))
		(line (pt 48 91)(pt 48 118))
		(line (pt 69 91)(pt 69 118)(line_width 3))
		(line (pt 95 91)(pt 95 118)(line_width 3))
		(line (pt 129 91)(pt 129 118)(line_width 3))
		(line (pt 163 91)(pt 163 118))
		(line (pt 40 48)(pt 207 48))
		(line (pt 207 48)(pt 207 135))
		(line (pt 40 135)(pt 207 135))
		(line (pt 40 48)(pt 40 135))
		(line (pt 255 64)(pt 207 64))
		(line (pt 255 80)(pt 207 80))
	)
)
(symbol
	(rect 584 752 864 832)
	(text "TTLOutputs" (rect 5 0 61 12)(font "Arial" ))
	(text "inst1" (rect 8 64 31 76)(font "Arial" ))
	(port
		(pt 0 32)
		(input)
		(text "PCINSTRUCTION[7..0]" (rect 0 0 116 12)(font "Arial" ))
		(text "PCINSTRUCTION[7..0]" (rect 21 27 137 39)(font "Arial" ))
		(line (pt 0 32)(pt 16 32)(line_width 3))
	)
	(port
		(pt 0 48)
		(input)
		(text "FX2_Clk" (rect 0 0 41 12)(font "Arial" ))
		(text "FX2_Clk" (rect 21 43 62 55)(font "Arial" ))
		(line (pt 0 48)(pt 16 48))
	)
	(port
		(pt 280 32)
		(output)
		(text "TTLOUTPUTS[1..0]" (rect 0 0 94 12)(font "Arial" ))
		(text "TTLOUTPUTS[1..0]" (rect 180 27 274 39)(font "Arial" ))
		(line (pt 280 32)(pt 264 32)(line_width 3))
	)
	(drawing
		(rectangle (rect 16 16 264 64))
	)
)
(symbol
	(rect -248 248 8 472)
	(text "apdtimer_all" (rect 5 0 72 14)(font "Arial" (font_size 8)))
	(text "inst2" (rect 8 208 31 220)(font "Arial" ))
	(port
		(pt 0 32)
		(input)
		(text "Detector_3" (rect 0 0 62 14)(font "Arial" (font_size 8)))
		(text "Detector_3" (rect 21 27 83 41)(font "Arial" (font_size 8)))
		(line (pt 0 32)(pt 16 32))
	)
	(port
		(pt 0 48)
		(input)
		(text "Detector_2" (rect 0 0 62 14)(font "Arial" (font_size 8)))
		(text "Detector_2" (rect 21 43 83 57)(font "Arial" (font_size 8)))
		(line (pt 0 48)(pt 16 48))
	)
	(port
		(pt 0 64)
		(input)
		(text "Detector_1" (rect 0 0 62 14)(font "Arial" (font_size 8)))
		(text "Detector_1" (rect 21 59 83 73)(font "Arial" (font_size 8)))
		(line (pt 0 64)(pt 16 64))
	)
	(port
		(pt 0 80)
		(input)
		(text "Detector_0" (rect 0 0 62 14)(font "Arial" (font_size 8)))
		(text "Detector_0" (rect 21 75 83 89)(font "Arial" (font_size 8)))
		(line (pt 0 80)(pt 16 80))
	)
	(port
		(pt 0 128)
		(input)
		(text "Demand_data" (rect 0 0 77 14)(font "Arial" (font_size 8)))
		(text "Demand_data" (rect 21 123 98 137)(font "Arial" (font_size 8)))
		(line (pt 0 128)(pt 16 128))
	)
	(port
		(pt 0 144)
		(input)
		(text "haltout" (rect 0 0 37 14)(font "Arial" (font_size 8)))
		(text "haltout" (rect 21 139 58 153)(font "Arial" (font_size 8)))
		(line (pt 0 144)(pt 16 144))
	)
	(port
		(pt 0 160)
		(input)
		(text "Clock" (rect 0 0 30 14)(font "Arial" (font_size 8)))
		(text "Clock" (rect 21 155 51 169)(font "Arial" (font_size 8)))
		(line (pt 0 160)(pt 16 160))
	)
	(port
		(pt 0 96)
		(input)
		(text "Enable_det" (rect 0 0 62 14)(font "Arial" (font_size 8)))
		(text "Enable_det" (rect 21 91 83 105)(font "Arial" (font_size 8)))
		(line (pt 0 96)(pt 16 96))
	)
	(port
		(pt 0 112)
		(input)
		(text "Disable_det" (rect 0 0 66 14)(font "Arial" (font_size 8)))
		(text "Disable_det" (rect 21 107 87 121)(font "Arial" (font_size 8)))
		(line (pt 0 112)(pt 16 112))
	)
	(port
		(pt 256 32)
		(output)
		(text "dataready" (rect 0 0 57 14)(font "Arial" (font_size 8)))
		(text "dataready" (rect 187 27 244 41)(font "Arial" (font_size 8)))
		(line (pt 256 32)(pt 240 32))
	)
	(port
		(pt 256 48)
		(output)
		(text "dataout[7..0]" (rect 0 0 70 14)(font "Arial" (font_size 8)))
		(text "dataout[7..0]" (rect 176 43 246 57)(font "Arial" (font_size 8)))
		(line (pt 256 48)(pt 240 48)(line_width 3))
	)
	(port
		(pt 256 64)
		(output)
		(text "Demand_data_unblock" (rect 0 0 128 14)(font "Arial" (font_size 8)))
		(text "Demand_data_unblock" (rect 127 59 255 73)(font "Arial" (font_size 8)))
		(line (pt 256 64)(pt 240 64))
	)
	(port
		(pt 256 80)
		(output)
		(text "Demand_data_block" (rect 0 0 114 14)(font "Arial" (font_size 8)))
		(text "Demand_data_block" (rect 139 75 253 89)(font "Arial" (font_size 8)))
		(line (pt 256 80)(pt 240 80))
	)
	(drawing
		(rectangle (rect 16 16 240 208))
	)
)
(connector
	(pt 176 64)
	(pt 176 8)
)
(connector
	(pt 176 8)
	(pt 184 8)
)
(connector
	(pt 368 -8)
	(pt 392 -8)
	(bus)
)
(connector
	(pt 24 240)
	(pt -1080 240)
)
(connector
	(pt 32 232)
	(pt -1096 232)
)
(connector
	(pt -616 384)
	(pt -656 384)
)
(connector
	(pt -888 336)
	(pt -832 336)
)
(connector
	(pt -864 368)
	(pt -832 368)
)
(connector
	(pt -1096 232)
	(pt -1096 808)
)
(connector
	(pt -1096 808)
	(pt 64 808)
)
(connector
	(pt -1080 240)
	(pt -1080 784)
)
(connector
	(pt -1080 784)
	(pt 64 784)
)
(connector
	(pt -848 264)
	(pt -1056 264)
)
(connector
	(pt -1056 336)
	(pt -1048 336)
)
(connector
	(pt -1056 320)
	(pt -1048 320)
)
(connector
	(pt -1056 264)
	(pt -1056 320)
)
(connector
	(text "PCINSTRUCTION3" (rect -942 280 -846 292)(font "Arial" ))
	(pt -936 296)
	(pt -848 296)
)
(connector
	(pt 184 24)
	(pt 152 24)
)
(connector
	(pt 376 528)
	(pt 352 528)
	(bus)
)
(connector
	(pt 384 472)
	(pt 384 616)
)
(connector
	(pt 464 552)
	(pt 448 552)
)
(connector
	(pt 352 472)
	(pt 384 472)
)
(connector
	(pt 376 488)
	(pt 376 528)
	(bus)
)
(connector
	(pt 376 488)
	(pt 504 488)
	(bus)
)
(connector
	(pt 464 552)
	(pt 464 512)
)
(connector
	(pt 464 512)
	(pt 504 512)
)
(connector
	(pt 488 608)
	(pt 488 552)
)
(connector
	(pt 488 552)
	(pt 504 552)
)
(connector
	(pt 664 528)
	(pt 688 528)
)
(connector
	(pt 736 528)
	(pt 752 528)
)
(connector
	(pt 664 512)
	(pt 680 512)
)
(connector
	(pt 680 512)
	(pt 680 688)
)
(connector
	(pt 104 648)
	(pt 104 536)
)
(connector
	(pt 104 648)
	(pt 96 648)
)
(connector
	(pt -16 688)
	(pt 680 688)
)
(connector
	(pt 0 656)
	(pt 32 656)
)
(connector
	(pt 0 680)
	(pt 368 680)
)
(connector
	(pt 368 680)
	(pt 368 552)
)
(connector
	(pt 128 -8)
	(pt 128 536)
)
(connector
	(pt 184 -8)
	(pt 128 -8)
)
(connector
	(pt 752 528)
	(pt 752 512)
)
(connector
	(pt 752 512)
	(pt 800 512)
)
(connector
	(pt 960 512)
	(pt 976 512)
)
(connector
	(pt 976 512)
	(pt 976 528)
)
(connector
	(pt 976 528)
	(pt 984 528)
)
(connector
	(pt 960 528)
	(pt 968 528)
)
(connector
	(pt 968 528)
	(pt 968 560)
)
(connector
	(pt 968 560)
	(pt 984 560)
)
(connector
	(pt 1088 424)
	(pt 1088 560)
)
(connector
	(pt 216 424)
	(pt 1088 424)
)
(connector
	(pt 1032 560)
	(pt 1088 560)
)
(connector
	(pt 784 608)
	(pt 784 552)
)
(connector
	(pt 784 552)
	(pt 800 552)
)
(connector
	(pt 472 528)
	(pt 504 528)
)
(connector
	(pt 472 528)
	(pt 472 680)
)
(connector
	(pt 472 680)
	(pt 1056 680)
)
(connector
	(pt 1032 528)
	(pt 1056 528)
)
(connector
	(pt 1056 528)
	(pt 1056 680)
)
(connector
	(pt 800 488)
	(pt 664 488)
	(bus)
)
(connector
	(pt 184 408)
	(pt 984 408)
	(bus)
)
(connector
	(pt 984 408)
	(pt 984 488)
	(bus)
)
(connector
	(pt 984 488)
	(pt 960 488)
	(bus)
)
(connector
	(pt 192 464)
	(pt 104 464)
	(bus)
)
(connector
	(pt 192 488)
	(pt 80 488)
)
(connector
	(pt 0 656)
	(pt 0 680)
)
(connector
	(pt 352 552)
	(pt 368 552)
)
(connector
	(pt 368 552)
	(pt 400 552)
)
(connector
	(pt 104 536)
	(pt 128 536)
)
(connector
	(pt 128 536)
	(pt 192 536)
)
(connector
	(pt 152 608)
	(pt 488 608)
)
(connector
	(pt 488 608)
	(pt 784 608)
)
(connector
	(pt 152 552)
	(pt 152 608)
)
(connector
	(pt 8 176)
	(pt 16 176)
	(bus)
)
(connector
	(pt 8 192)
	(pt 24 192)
)
(connector
	(pt 392 -8)
	(pt 392 72)
	(bus)
)
(connector
	(pt 392 72)
	(pt 232 72)
	(bus)
)
(connector
	(pt 176 64)
	(pt 632 64)
)
(connector
	(pt 800 528)
	(pt 776 528)
)
(connector
	(pt -296 616)
	(pt 384 616)
)
(connector
	(pt -16 688)
	(pt -16 640)
)
(connector
	(pt -16 640)
	(pt 32 640)
)
(connector
	(pt -848 264)
	(pt -848 296)
)
(connector
	(pt -832 296)
	(pt -840 296)
)
(connector
	(pt -840 296)
	(pt -840 320)
)
(connector
	(pt -952 320)
	(pt -840 320)
)
(connector
	(pt -840 320)
	(pt -832 320)
)
(connector
	(pt -568 384)
	(pt -560 384)
)
(connector
	(pt -648 360)
	(pt -648 352)
)
(connector
	(pt -656 360)
	(pt -648 360)
)
(connector
	(text "PCRead" (rect -622 336 -581 348)(font "Arial" ))
	(pt -648 352)
	(pt -552 352)
)
(connector
	(pt -840 384)
	(pt -832 384)
)
(connector
	(pt -840 384)
	(pt -840 504)
)
(connector
	(pt 152 552)
	(pt 192 552)
)
(connector
	(pt -488 720)
	(pt -496 720)
)
(connector
	(pt 152 128)
	(pt 240 128)
)
(connector
	(pt 16 176)
	(pt 16 144)
	(bus)
)
(connector
	(pt 16 144)
	(pt 240 144)
	(bus)
)
(connector
	(pt 24 192)
	(pt 24 160)
)
(connector
	(pt 24 160)
	(pt 240 160)
)
(connector
	(pt 232 208)
	(pt 240 208)
	(bus)
)
(connector
	(pt 232 72)
	(pt 232 208)
	(bus)
)
(connector
	(pt 184 176)
	(pt 240 176)
	(bus)
)
(connector
	(pt 632 64)
	(pt 632 288)
)
(connector
	(pt 216 192)
	(pt 240 192)
)
(connector
	(pt 184 408)
	(pt 184 176)
	(bus)
)
(connector
	(pt 776 528)
	(pt 776 256)
)
(connector
	(pt 216 424)
	(pt 216 192)
)
(connector
	(pt 152 24)
	(pt 152 128)
)
(connector
	(pt 152 128)
	(pt 152 552)
)
(connector
	(pt 600 144)
	(pt 760 144)
)
(connector
	(pt 600 160)
	(pt 760 160)
)
(connector
	(pt 600 176)
	(pt 760 176)
)
(connector
	(pt 600 192)
	(pt 760 192)
)
(connector
	(pt 600 208)
	(pt 760 208)
)
(connector
	(pt 600 224)
	(pt 760 224)
)
(connector
	(text "PKT_END" (rect 682 224 731 236)(font "Arial" ))
	(pt 600 240)
	(pt 760 240)
)
(connector
	(pt 600 256)
	(pt 776 256)
)
(connector
	(text "PCINSTRUCTION[7..0]" (rect 624 256 740 268)(font "Arial" ))
	(pt 600 272)
	(pt 736 272)
	(bus)
)
(connector
	(pt 600 288)
	(pt 632 288)
)
(connector
	(pt 600 320)
	(pt 640 320)
)
(connector
	(pt 696 304)
	(pt 600 304)
)
(connector
	(text "PCINSTRUCTION[7..0]" (rect 416 768 532 780)(font "Arial" ))
	(pt 416 784)
	(pt 584 784)
	(bus)
)
(connector
	(text "TTLOUTPUTS[1..0]" (rect 928 760 1022 772)(font "Arial" ))
	(pt 864 784)
	(pt 976 784)
	(bus)
)
(connector
	(pt 584 800)
	(pt 568 800)
)
(connector
	(pt 568 800)
	(pt 568 864)
)
(connector
	(pt 568 864)
	(pt -208 864)
)
(connector
	(pt -208 552)
	(pt -208 864)
)
(connector
	(pt -208 552)
	(pt 152 552)
)
(connector
	(text "TTLOUTPUTS0" (rect -54 712 20 724)(font "Arial" ))
	(pt -64 728)
	(pt 64 728)
)
(connector
	(text "TTLOUTPUTS1" (rect -54 744 20 756)(font "Arial" ))
	(pt -88 760)
	(pt 56 760)
)
(connector
	(pt 600 128)
	(pt 944 128)
	(bus)
)
(connector
	(pt -832 768)
	(pt -784 768)
)
(connector
	(pt -784 648)
	(pt -840 648)
)
(connector
	(pt -496 648)
	(pt -496 720)
)
(connector
	(pt -496 552)
	(pt -496 648)
)
(connector
	(pt -496 552)
	(pt -208 552)
)
(connector
	(pt -1056 336)
	(pt -1056 552)
)
(connector
	(pt -888 336)
	(pt -888 552)
)
(connector
	(pt -1056 552)
	(pt -888 552)
)
(connector
	(pt -888 552)
	(pt -496 552)
)
(connector
	(pt -840 504)
	(pt -344 504)
)
(connector
	(pt -344 504)
	(pt 192 504)
)
(connector
	(pt -560 528)
	(pt -864 528)
)
(connector
	(pt -864 368)
	(pt -864 528)
)
(connector
	(pt -528 648)
	(pt -496 648)
)
(connector
	(pt -496 648)
	(pt -344 648)
)
(connector
	(pt 32 232)
	(pt 32 328)
)
(connector
	(pt 24 240)
	(pt 24 312)
)
(connector
	(pt -296 616)
	(pt -296 392)
)
(connector
	(pt 80 488)
	(pt 80 280)
)
(connector
	(pt 104 464)
	(pt 104 296)
	(bus)
)
(connector
	(pt 80 280)
	(pt 8 280)
)
(connector
	(pt 104 296)
	(pt 8 296)
	(bus)
)
(connector
	(pt 24 312)
	(pt 8 312)
)
(connector
	(pt 32 328)
	(pt 8 328)
)
(connector
	(pt -560 376)
	(pt -560 384)
)
(connector
	(pt -560 384)
	(pt -560 528)
)
(connector
	(pt -344 408)
	(pt -344 504)
)
(connector
	(pt -344 504)
	(pt -344 648)
)
(connector
	(pt -304 280)
	(pt -248 280)
)
(connector
	(pt -304 296)
	(pt -248 296)
)
(connector
	(pt -304 312)
	(pt -248 312)
)
(connector
	(pt -304 328)
	(pt -248 328)
)
(connector
	(text "PCINSTRUCTION2" (rect -350 336 -254 348)(font "Arial" ))
	(pt -360 344)
	(pt -248 344)
)
(connector
	(text "PCINSTRUCTION1" (rect -350 352 -254 364)(font "Arial" ))
	(pt -360 360)
	(pt -248 360)
)
(connector
	(pt -560 376)
	(pt -248 376)
)
(connector
	(pt -296 392)
	(pt -248 392)
)
(connector
	(pt -344 408)
	(pt -248 408)
)
(junction (pt 368 552))
(junction (pt 128 536))
(junction (pt 488 608))
(junction (pt 152 552))
(junction (pt 152 128))
(junction (pt -840 320))
(junction (pt -560 384))
(junction (pt -344 504))
(junction (pt -496 648))
(junction (pt -208 552))
(junction (pt -496 552))
(junction (pt -888 552))
(text "This clockConverter dcFIFO is used to convert a signal between clocks." (rect -896 200 -488 214)(font "Arial" (font_size 8)))
