/*
WARNING: Do NOT edit the input and output ports in this file in a text
editor if you plan to continue editing the block that represents it in
the Block Editor! File corruption is VERY likely to occur.
*/
/*
Copyright (C) 1991-2013 Altera Corporation
Your use of Altera Corporation's design tools, logic functions 
and other software and tools, and its AMPP partner logic 
functions, and any output files from any of the foregoing 
(including device programming or simulation files), and any 
associated documentation or information are expressly subject 
to the terms and conditions of the Altera Program License 
Subscription Agreement, Altera MegaCore Function License 
Agreement, or other applicable license agreement, including, 
without limitation, that your use is for the sole purpose of 
programming logic devices manufactured by Altera and sold by 
Altera or its authorized distributors.  Please refer to the 
applicable agreement for further details.
*/
(header "graphic" (version "1.4"))
(pin
	(input)
	(rect 128 56 304 72)
	(text "INPUT" (rect 133 0 161 10)(font "Arial" (font_size 6)))
	(text "Clock" (rect 9 0 37 12)(font "Arial" ))
	(pt 176 8)
	(drawing
		(line (pt 92 12)(pt 117 12))
		(line (pt 92 4)(pt 117 4))
		(line (pt 121 8)(pt 176 8))
		(line (pt 92 12)(pt 92 4))
		(line (pt 117 4)(pt 121 8))
		(line (pt 117 12)(pt 121 8))
	)
	(text "VCC" (rect 136 7 156 17)(font "Arial" (font_size 6)))
)
(pin
	(input)
	(rect 128 -72 304 -56)
	(text "INPUT" (rect 133 0 161 10)(font "Arial" (font_size 6)))
	(text "Reset_counter" (rect 9 0 80 12)(font "Arial" ))
	(pt 176 8)
	(drawing
		(line (pt 92 12)(pt 117 12))
		(line (pt 92 4)(pt 117 4))
		(line (pt 121 8)(pt 176 8))
		(line (pt 92 12)(pt 92 4))
		(line (pt 117 4)(pt 121 8))
		(line (pt 117 12)(pt 121 8))
	)
	(text "VCC" (rect 136 7 156 17)(font "Arial" (font_size 6)))
)
(pin
	(input)
	(rect 416 -328 592 -312)
	(text "INPUT" (rect 133 0 161 10)(font "Arial" (font_size 6)))
	(text "Detector_1" (rect 9 0 63 12)(font "Arial" ))
	(pt 176 8)
	(drawing
		(line (pt 92 12)(pt 117 12))
		(line (pt 92 4)(pt 117 4))
		(line (pt 121 8)(pt 176 8))
		(line (pt 92 12)(pt 92 4))
		(line (pt 117 4)(pt 121 8))
		(line (pt 117 12)(pt 121 8))
	)
	(text "VCC" (rect 136 7 156 17)(font "Arial" (font_size 6)))
)
(pin
	(input)
	(rect 416 -472 592 -456)
	(text "INPUT" (rect 133 0 161 10)(font "Arial" (font_size 6)))
	(text "Detector_2" (rect 9 0 63 12)(font "Arial" ))
	(pt 176 8)
	(drawing
		(line (pt 92 12)(pt 117 12))
		(line (pt 92 4)(pt 117 4))
		(line (pt 121 8)(pt 176 8))
		(line (pt 92 12)(pt 92 4))
		(line (pt 117 4)(pt 121 8))
		(line (pt 117 12)(pt 121 8))
	)
	(text "VCC" (rect 136 7 156 17)(font "Arial" (font_size 6)))
)
(pin
	(input)
	(rect 416 -616 592 -600)
	(text "INPUT" (rect 133 0 161 10)(font "Arial" (font_size 6)))
	(text "Detector_3" (rect 9 0 63 12)(font "Arial" ))
	(pt 176 8)
	(drawing
		(line (pt 92 12)(pt 117 12))
		(line (pt 92 4)(pt 117 4))
		(line (pt 121 8)(pt 176 8))
		(line (pt 92 12)(pt 92 4))
		(line (pt 117 4)(pt 121 8))
		(line (pt 117 12)(pt 121 8))
	)
	(text "VCC" (rect 136 7 156 17)(font "Arial" (font_size 6)))
)
(pin
	(input)
	(rect 416 -184 592 -168)
	(text "INPUT" (rect 133 0 161 10)(font "Arial" (font_size 6)))
	(text "Detector_0" (rect 9 0 63 12)(font "Arial" ))
	(pt 176 8)
	(drawing
		(line (pt 92 12)(pt 117 12))
		(line (pt 92 4)(pt 117 4))
		(line (pt 121 8)(pt 176 8))
		(line (pt 92 12)(pt 92 4))
		(line (pt 117 4)(pt 121 8))
		(line (pt 117 12)(pt 121 8))
	)
	(text "VCC" (rect 136 7 156 17)(font "Arial" (font_size 6)))
)
(pin
	(input)
	(rect 128 16 304 32)
	(text "INPUT" (rect 133 0 161 10)(font "Arial" (font_size 6)))
	(text "haltout" (rect 9 0 42 12)(font "Arial" ))
	(pt 176 8)
	(drawing
		(line (pt 92 12)(pt 117 12))
		(line (pt 92 4)(pt 117 4))
		(line (pt 121 8)(pt 176 8))
		(line (pt 92 12)(pt 92 4))
		(line (pt 117 4)(pt 121 8))
		(line (pt 117 12)(pt 121 8))
	)
	(text "VCC" (rect 136 7 156 17)(font "Arial" (font_size 6)))
)
(pin
	(input)
	(rect 424 112 600 128)
	(text "INPUT" (rect 133 0 161 10)(font "Arial" (font_size 6)))
	(text "Start" (rect 9 0 32 12)(font "Arial" ))
	(pt 176 8)
	(drawing
		(line (pt 92 12)(pt 117 12))
		(line (pt 92 4)(pt 117 4))
		(line (pt 121 8)(pt 176 8))
		(line (pt 92 12)(pt 92 4))
		(line (pt 117 4)(pt 121 8))
		(line (pt 117 12)(pt 121 8))
	)
	(text "VCC" (rect 136 7 156 17)(font "Arial" (font_size 6)))
)
(pin
	(input)
	(rect 128 -136 304 -120)
	(text "INPUT" (rect 133 0 161 10)(font "Arial" (font_size 6)))
	(text "Enable_det" (rect 9 0 63 12)(font "Arial" ))
	(pt 176 8)
	(drawing
		(line (pt 92 12)(pt 117 12))
		(line (pt 92 4)(pt 117 4))
		(line (pt 121 8)(pt 176 8))
		(line (pt 92 12)(pt 92 4))
		(line (pt 117 4)(pt 121 8))
		(line (pt 117 12)(pt 121 8))
	)
	(text "VCC" (rect 136 7 156 17)(font "Arial" (font_size 6)))
)
(pin
	(input)
	(rect 128 -96 304 -80)
	(text "INPUT" (rect 133 0 161 10)(font "Arial" (font_size 6)))
	(text "Disable_det" (rect 9 0 66 12)(font "Arial" ))
	(pt 176 8)
	(drawing
		(line (pt 92 12)(pt 117 12))
		(line (pt 92 4)(pt 117 4))
		(line (pt 121 8)(pt 176 8))
		(line (pt 92 12)(pt 92 4))
		(line (pt 117 4)(pt 121 8))
		(line (pt 117 12)(pt 121 8))
	)
	(text "VCC" (rect 136 7 156 17)(font "Arial" (font_size 6)))
)
(pin
	(output)
	(rect 1824 -168 2000 -152)
	(text "OUTPUT" (rect 1 0 39 10)(font "Arial" (font_size 6)))
	(text "dataout[7..0]" (rect 90 0 152 12)(font "Arial" ))
	(pt 0 8)
	(drawing
		(line (pt 0 8)(pt 52 8))
		(line (pt 52 4)(pt 78 4))
		(line (pt 52 12)(pt 78 12))
		(line (pt 52 12)(pt 52 4))
		(line (pt 78 4)(pt 82 8))
		(line (pt 82 8)(pt 78 12))
		(line (pt 78 12)(pt 82 8))
	)
)
(pin
	(output)
	(rect 1824 -64 2000 -48)
	(text "OUTPUT" (rect 1 0 39 10)(font "Arial" (font_size 6)))
	(text "dataready" (rect 90 0 139 12)(font "Arial" ))
	(pt 0 8)
	(drawing
		(line (pt 0 8)(pt 52 8))
		(line (pt 52 4)(pt 78 4))
		(line (pt 52 12)(pt 78 12))
		(line (pt 52 12)(pt 52 4))
		(line (pt 78 4)(pt 82 8))
		(line (pt 82 8)(pt 78 12))
		(line (pt 78 12)(pt 82 8))
	)
)
(symbol
	(rect 416 -152 480 -72)
	(text "SRFF" (rect 1 0 25 10)(font "Arial" (font_size 6)))
	(text "inst5" (rect 3 68 26 80)(font "Arial" ))
	(port
		(pt 32 0)
		(input)
		(text "PRN" (rect 24 13 41 25)(font "Courier New" (bold)))
		(text "PRN" (rect 24 11 41 23)(font "Courier New" (bold)))
		(line (pt 32 4)(pt 32 0))
	)
	(port
		(pt 32 80)
		(input)
		(text "CLRN" (rect 21 59 44 71)(font "Courier New" (bold)))
		(text "CLRN" (rect 21 58 44 70)(font "Courier New" (bold)))
		(line (pt 32 80)(pt 32 76))
	)
	(port
		(pt 0 24)
		(input)
		(text "S" (rect 14 20 19 32)(font "Courier New" (bold)))
		(text "S" (rect 14 20 19 32)(font "Courier New" (bold)))
		(line (pt 0 24)(pt 12 24))
	)
	(port
		(pt 0 56)
		(input)
		(text "R" (rect 14 51 19 63)(font "Courier New" (bold)))
		(text "R" (rect 14 51 19 63)(font "Courier New" (bold)))
		(line (pt 0 56)(pt 12 56))
	)
	(port
		(pt 0 40)
		(input)
		(text "CLK" (rect 2 29 19 41)(font "Courier New" (bold))(invisible))
		(text "CLK" (rect 2 29 19 41)(font "Courier New" (bold))(invisible))
		(line (pt 0 40)(pt 12 40))
	)
	(port
		(pt 64 24)
		(output)
		(text "Q" (rect 45 20 50 32)(font "Courier New" (bold)))
		(text "Q" (rect 43 20 47 32)(font "Courier New" (bold)))
		(line (pt 52 24)(pt 64 24))
	)
	(drawing
		(line (pt 12 68)(pt 52 68))
		(line (pt 12 12)(pt 52 12))
		(line (pt 52 68)(pt 52 12))
		(line (pt 12 68)(pt 12 12))
		(line (pt 19 40)(pt 12 47))
		(line (pt 12 33)(pt 19 40))
		(circle (rect 28 4 36 12))
		(circle (rect 28 68 36 76))
	)
)
(symbol
	(rect 616 -192 680 -144)
	(text "AND2" (rect 1 0 25 10)(font "Arial" (font_size 6)))
	(text "inst6" (rect 3 37 26 49)(font "Arial" ))
	(port
		(pt 0 16)
		(input)
		(text "IN1" (rect 2 7 19 19)(font "Courier New" (bold))(invisible))
		(text "IN1" (rect 2 7 19 19)(font "Courier New" (bold))(invisible))
		(line (pt 0 16)(pt 14 16))
	)
	(port
		(pt 0 32)
		(input)
		(text "IN2" (rect 2 23 19 35)(font "Courier New" (bold))(invisible))
		(text "IN2" (rect 2 23 19 35)(font "Courier New" (bold))(invisible))
		(line (pt 0 32)(pt 14 32))
	)
	(port
		(pt 64 24)
		(output)
		(text "OUT" (rect 48 15 65 27)(font "Courier New" (bold))(invisible))
		(text "OUT" (rect 48 15 62 27)(font "Courier New" (bold))(invisible))
		(line (pt 42 24)(pt 64 24))
	)
	(drawing
		(line (pt 14 12)(pt 30 12))
		(line (pt 14 37)(pt 31 37))
		(line (pt 14 12)(pt 14 37))
		(arc (pt 31 37)(pt 30 12)(rect 18 12 43 37))
	)
)
(symbol
	(rect 616 -336 680 -288)
	(text "AND2" (rect 1 0 25 10)(font "Arial" (font_size 6)))
	(text "inst7" (rect 3 37 26 49)(font "Arial" ))
	(port
		(pt 0 16)
		(input)
		(text "IN1" (rect 2 7 19 19)(font "Courier New" (bold))(invisible))
		(text "IN1" (rect 2 7 19 19)(font "Courier New" (bold))(invisible))
		(line (pt 0 16)(pt 14 16))
	)
	(port
		(pt 0 32)
		(input)
		(text "IN2" (rect 2 23 19 35)(font "Courier New" (bold))(invisible))
		(text "IN2" (rect 2 23 19 35)(font "Courier New" (bold))(invisible))
		(line (pt 0 32)(pt 14 32))
	)
	(port
		(pt 64 24)
		(output)
		(text "OUT" (rect 48 15 65 27)(font "Courier New" (bold))(invisible))
		(text "OUT" (rect 48 15 62 27)(font "Courier New" (bold))(invisible))
		(line (pt 42 24)(pt 64 24))
	)
	(drawing
		(line (pt 14 12)(pt 30 12))
		(line (pt 14 37)(pt 31 37))
		(line (pt 14 12)(pt 14 37))
		(arc (pt 31 37)(pt 30 12)(rect 18 12 43 37))
	)
)
(symbol
	(rect 1376 -72 1424 -40)
	(text "NOT" (rect 1 0 21 10)(font "Arial" (font_size 6)))
	(text "inst30" (rect 3 21 32 33)(font "Arial" ))
	(port
		(pt 0 16)
		(input)
		(text "IN" (rect 2 7 13 19)(font "Courier New" (bold))(invisible))
		(text "IN" (rect 2 7 13 19)(font "Courier New" (bold))(invisible))
		(line (pt 0 16)(pt 13 16))
	)
	(port
		(pt 48 16)
		(output)
		(text "OUT" (rect 32 7 49 19)(font "Courier New" (bold))(invisible))
		(text "OUT" (rect 32 7 46 19)(font "Courier New" (bold))(invisible))
		(line (pt 39 16)(pt 48 16))
	)
	(drawing
		(line (pt 13 25)(pt 13 7))
		(line (pt 13 7)(pt 31 16))
		(line (pt 13 25)(pt 31 16))
		(circle (rect 31 12 39 20))
	)
)
(symbol
	(rect 616 -480 680 -432)
	(text "AND2" (rect 1 0 25 10)(font "Arial" (font_size 6)))
	(text "inst8" (rect 3 37 26 49)(font "Arial" ))
	(port
		(pt 0 16)
		(input)
		(text "IN1" (rect 2 7 19 19)(font "Courier New" (bold))(invisible))
		(text "IN1" (rect 2 7 19 19)(font "Courier New" (bold))(invisible))
		(line (pt 0 16)(pt 14 16))
	)
	(port
		(pt 0 32)
		(input)
		(text "IN2" (rect 2 23 19 35)(font "Courier New" (bold))(invisible))
		(text "IN2" (rect 2 23 19 35)(font "Courier New" (bold))(invisible))
		(line (pt 0 32)(pt 14 32))
	)
	(port
		(pt 64 24)
		(output)
		(text "OUT" (rect 48 15 65 27)(font "Courier New" (bold))(invisible))
		(text "OUT" (rect 48 15 62 27)(font "Courier New" (bold))(invisible))
		(line (pt 42 24)(pt 64 24))
	)
	(drawing
		(line (pt 14 12)(pt 30 12))
		(line (pt 14 37)(pt 31 37))
		(line (pt 14 12)(pt 14 37))
		(arc (pt 31 37)(pt 30 12)(rect 18 12 43 37))
	)
)
(symbol
	(rect 616 -624 680 -576)
	(text "AND2" (rect 1 0 25 10)(font "Arial" (font_size 6)))
	(text "inst16" (rect 3 37 32 49)(font "Arial" ))
	(port
		(pt 0 16)
		(input)
		(text "IN1" (rect 2 7 19 19)(font "Courier New" (bold))(invisible))
		(text "IN1" (rect 2 7 19 19)(font "Courier New" (bold))(invisible))
		(line (pt 0 16)(pt 14 16))
	)
	(port
		(pt 0 32)
		(input)
		(text "IN2" (rect 2 23 19 35)(font "Courier New" (bold))(invisible))
		(text "IN2" (rect 2 23 19 35)(font "Courier New" (bold))(invisible))
		(line (pt 0 32)(pt 14 32))
	)
	(port
		(pt 64 24)
		(output)
		(text "OUT" (rect 48 15 65 27)(font "Courier New" (bold))(invisible))
		(text "OUT" (rect 48 15 62 27)(font "Courier New" (bold))(invisible))
		(line (pt 42 24)(pt 64 24))
	)
	(drawing
		(line (pt 14 12)(pt 30 12))
		(line (pt 14 37)(pt 31 37))
		(line (pt 14 12)(pt 14 37))
		(arc (pt 31 37)(pt 30 12)(rect 18 12 43 37))
	)
)
(symbol
	(rect 520 -144 584 -96)
	(text "AND2" (rect 1 0 25 10)(font "Arial" (font_size 6)))
	(text "inst39" (rect 3 37 32 49)(font "Arial" ))
	(port
		(pt 0 16)
		(input)
		(text "IN1" (rect 2 7 19 19)(font "Courier New" (bold))(invisible))
		(text "IN1" (rect 2 7 19 19)(font "Courier New" (bold))(invisible))
		(line (pt 0 16)(pt 14 16))
	)
	(port
		(pt 0 32)
		(input)
		(text "IN2" (rect 2 23 19 35)(font "Courier New" (bold))(invisible))
		(text "IN2" (rect 2 23 19 35)(font "Courier New" (bold))(invisible))
		(line (pt 0 32)(pt 14 32))
	)
	(port
		(pt 64 24)
		(output)
		(text "OUT" (rect 48 15 65 27)(font "Courier New" (bold))(invisible))
		(text "OUT" (rect 48 15 62 27)(font "Courier New" (bold))(invisible))
		(line (pt 42 24)(pt 64 24))
	)
	(drawing
		(line (pt 14 12)(pt 30 12))
		(line (pt 14 37)(pt 31 37))
		(line (pt 14 12)(pt 14 37))
		(arc (pt 31 37)(pt 30 12)(rect 18 12 43 37))
	)
)
(symbol
	(rect 720 -424 816 -328)
	(text "clicklatch" (rect 5 0 51 12)(font "Arial" ))
	(text "inst4" (rect 8 80 31 92)(font "Arial" ))
	(port
		(pt 0 32)
		(input)
		(text "click" (rect 0 0 22 12)(font "Arial" ))
		(text "click" (rect 21 27 43 39)(font "Arial" ))
		(line (pt 0 32)(pt 16 32))
	)
	(port
		(pt 0 48)
		(input)
		(text "clock" (rect 0 0 25 12)(font "Arial" ))
		(text "clock" (rect 21 43 46 55)(font "Arial" ))
		(line (pt 0 48)(pt 16 48))
	)
	(port
		(pt 96 32)
		(output)
		(text "data" (rect 0 0 21 12)(font "Arial" ))
		(text "data" (rect 58 27 75 39)(font "Arial" ))
		(line (pt 96 32)(pt 80 32))
	)
	(drawing
		(rectangle (rect 16 16 80 80))
	)
)
(symbol
	(rect 720 -528 816 -432)
	(text "clicklatch" (rect 5 0 51 12)(font "Arial" ))
	(text "inst9" (rect 8 80 31 92)(font "Arial" ))
	(port
		(pt 0 32)
		(input)
		(text "click" (rect 0 0 22 12)(font "Arial" ))
		(text "click" (rect 21 27 43 39)(font "Arial" ))
		(line (pt 0 32)(pt 16 32))
	)
	(port
		(pt 0 48)
		(input)
		(text "clock" (rect 0 0 25 12)(font "Arial" ))
		(text "clock" (rect 21 43 46 55)(font "Arial" ))
		(line (pt 0 48)(pt 16 48))
	)
	(port
		(pt 96 32)
		(output)
		(text "data" (rect 0 0 21 12)(font "Arial" ))
		(text "data" (rect 58 27 75 39)(font "Arial" ))
		(line (pt 96 32)(pt 80 32))
	)
	(drawing
		(rectangle (rect 16 16 80 80))
	)
)
(symbol
	(rect 720 -632 816 -536)
	(text "clicklatch" (rect 5 0 51 12)(font "Arial" ))
	(text "inst10" (rect 8 80 37 92)(font "Arial" ))
	(port
		(pt 0 32)
		(input)
		(text "click" (rect 0 0 22 12)(font "Arial" ))
		(text "click" (rect 21 27 43 39)(font "Arial" ))
		(line (pt 0 32)(pt 16 32))
	)
	(port
		(pt 0 48)
		(input)
		(text "clock" (rect 0 0 25 12)(font "Arial" ))
		(text "clock" (rect 21 43 46 55)(font "Arial" ))
		(line (pt 0 48)(pt 16 48))
	)
	(port
		(pt 96 32)
		(output)
		(text "data" (rect 0 0 21 12)(font "Arial" ))
		(text "data" (rect 58 27 75 39)(font "Arial" ))
		(line (pt 96 32)(pt 80 32))
	)
	(drawing
		(rectangle (rect 16 16 80 80))
	)
)
(symbol
	(rect 720 -320 816 -224)
	(text "clicklatch" (rect 5 0 51 12)(font "Arial" ))
	(text "inst11" (rect 8 80 37 92)(font "Arial" ))
	(port
		(pt 0 32)
		(input)
		(text "click" (rect 0 0 22 12)(font "Arial" ))
		(text "click" (rect 21 27 43 39)(font "Arial" ))
		(line (pt 0 32)(pt 16 32))
	)
	(port
		(pt 0 48)
		(input)
		(text "clock" (rect 0 0 25 12)(font "Arial" ))
		(text "clock" (rect 21 43 46 55)(font "Arial" ))
		(line (pt 0 48)(pt 16 48))
	)
	(port
		(pt 96 32)
		(output)
		(text "data" (rect 0 0 21 12)(font "Arial" ))
		(text "data" (rect 58 27 75 39)(font "Arial" ))
		(line (pt 96 32)(pt 80 32))
	)
	(drawing
		(rectangle (rect 16 16 80 80))
	)
)
(symbol
	(rect 1456 -8 1520 40)
	(text "AND2" (rect 1 0 25 10)(font "Arial" (font_size 6)))
	(text "inst13" (rect 3 37 32 49)(font "Arial" ))
	(port
		(pt 0 16)
		(input)
		(text "IN1" (rect 2 7 19 19)(font "Courier New" (bold))(invisible))
		(text "IN1" (rect 2 7 19 19)(font "Courier New" (bold))(invisible))
		(line (pt 0 16)(pt 14 16))
	)
	(port
		(pt 0 32)
		(input)
		(text "IN2" (rect 2 23 19 35)(font "Courier New" (bold))(invisible))
		(text "IN2" (rect 2 23 19 35)(font "Courier New" (bold))(invisible))
		(line (pt 0 32)(pt 14 32))
	)
	(port
		(pt 64 24)
		(output)
		(text "OUT" (rect 48 15 65 27)(font "Courier New" (bold))(invisible))
		(text "OUT" (rect 48 15 62 27)(font "Courier New" (bold))(invisible))
		(line (pt 42 24)(pt 64 24))
	)
	(drawing
		(line (pt 14 12)(pt 30 12))
		(line (pt 14 37)(pt 31 37))
		(line (pt 14 12)(pt 14 37))
		(arc (pt 31 37)(pt 30 12)(rect 18 12 43 37))
	)
)
(symbol
	(rect 328 8 376 40)
	(text "NOT" (rect 1 0 21 10)(font "Arial" (font_size 6)))
	(text "inst15" (rect 3 21 32 33)(font "Arial" ))
	(port
		(pt 0 16)
		(input)
		(text "IN" (rect 2 7 13 19)(font "Courier New" (bold))(invisible))
		(text "IN" (rect 2 7 13 19)(font "Courier New" (bold))(invisible))
		(line (pt 0 16)(pt 13 16))
	)
	(port
		(pt 48 16)
		(output)
		(text "OUT" (rect 32 7 49 19)(font "Courier New" (bold))(invisible))
		(text "OUT" (rect 32 7 46 19)(font "Courier New" (bold))(invisible))
		(line (pt 39 16)(pt 48 16))
	)
	(drawing
		(line (pt 13 25)(pt 13 7))
		(line (pt 13 7)(pt 31 16))
		(line (pt 13 25)(pt 31 16))
		(circle (rect 31 12 39 20))
	)
)
(symbol
	(rect 320 -120 384 -72)
	(text "OR2" (rect 1 0 19 10)(font "Arial" (font_size 6)))
	(text "inst" (rect 3 37 20 49)(font "Arial" ))
	(port
		(pt 0 32)
		(input)
		(text "IN2" (rect 2 23 19 35)(font "Courier New" (bold))(invisible))
		(text "IN2" (rect 2 23 19 35)(font "Courier New" (bold))(invisible))
		(line (pt 0 32)(pt 15 32))
	)
	(port
		(pt 0 16)
		(input)
		(text "IN1" (rect 2 7 19 19)(font "Courier New" (bold))(invisible))
		(text "IN1" (rect 2 7 19 19)(font "Courier New" (bold))(invisible))
		(line (pt 0 16)(pt 15 16))
	)
	(port
		(pt 64 24)
		(output)
		(text "OUT" (rect 48 15 65 27)(font "Courier New" (bold))(invisible))
		(text "OUT" (rect 48 15 62 27)(font "Courier New" (bold))(invisible))
		(line (pt 48 24)(pt 64 24))
	)
	(drawing
		(line (pt 14 36)(pt 25 36))
		(line (pt 14 13)(pt 25 13))
		(arc (pt 7 29)(pt 7 19)(rect -14 8 19 41))
		(arc (pt 49 24)(pt 25 13)(rect -6 13 57 76))
		(arc (pt 25 35)(pt 49 24)(rect -6 -27 57 36))
	)
)
(symbol
	(rect 128 -248 224 -152)
	(text "runonce" (rect 5 0 43 12)(font "Arial" ))
	(text "inst17" (rect 8 80 37 92)(font "Arial" ))
	(port
		(pt 96 32)
		(output)
		(text "out" (rect 0 0 15 12)(font "Arial" ))
		(text "out" (rect 63 27 75 39)(font "Arial" ))
		(line (pt 96 32)(pt 80 32))
	)
	(drawing
		(rectangle (rect 16 16 80 80))
	)
)
(symbol
	(rect 1568 56 1704 152)
	(text "mycounter" (rect 5 0 58 12)(font "Arial" ))
	(text "inst12" (rect 8 80 37 92)(font "Arial" ))
	(port
		(pt 0 32)
		(input)
		(text "clk" (rect 0 0 14 12)(font "Arial" ))
		(text "clk" (rect 21 27 35 39)(font "Arial" ))
		(line (pt 0 32)(pt 16 32))
	)
	(port
		(pt 0 48)
		(input)
		(text "enable" (rect 0 0 31 12)(font "Arial" ))
		(text "enable" (rect 21 43 52 55)(font "Arial" ))
		(line (pt 0 48)(pt 16 48))
	)
	(port
		(pt 136 32)
		(output)
		(text "count[1..0]" (rect 0 0 53 12)(font "Arial" ))
		(text "count[1..0]" (rect 71 27 115 39)(font "Arial" ))
		(line (pt 136 32)(pt 120 32)(line_width 3))
	)
	(port
		(pt 136 48)
		(output)
		(text "cout" (rect 0 0 21 12)(font "Arial" ))
		(text "cout" (rect 98 43 115 55)(font "Arial" ))
		(line (pt 136 48)(pt 120 48))
	)
	(drawing
		(rectangle (rect 16 16 120 80))
	)
)
(symbol
	(rect 624 88 688 136)
	(text "AND2" (rect 1 0 25 10)(font "Arial" (font_size 6)))
	(text "inst14" (rect 3 37 32 49)(font "Arial" ))
	(port
		(pt 0 16)
		(input)
		(text "IN1" (rect 2 7 19 19)(font "Courier New" (bold))(invisible))
		(text "IN1" (rect 2 7 19 19)(font "Courier New" (bold))(invisible))
		(line (pt 0 16)(pt 14 16))
	)
	(port
		(pt 0 32)
		(input)
		(text "IN2" (rect 2 23 19 35)(font "Courier New" (bold))(invisible))
		(text "IN2" (rect 2 23 19 35)(font "Courier New" (bold))(invisible))
		(line (pt 0 32)(pt 14 32))
	)
	(port
		(pt 64 24)
		(output)
		(text "OUT" (rect 48 15 65 27)(font "Courier New" (bold))(invisible))
		(text "OUT" (rect 48 15 62 27)(font "Courier New" (bold))(invisible))
		(line (pt 42 24)(pt 64 24))
	)
	(drawing
		(line (pt 14 12)(pt 30 12))
		(line (pt 14 37)(pt 31 37))
		(line (pt 14 12)(pt 14 37))
		(arc (pt 31 37)(pt 30 12)(rect 18 12 43 37))
	)
)
(symbol
	(rect 720 80 816 176)
	(text "clicklatch" (rect 5 0 51 12)(font "Arial" ))
	(text "inst18" (rect 8 80 37 92)(font "Arial" ))
	(port
		(pt 0 32)
		(input)
		(text "click" (rect 0 0 22 12)(font "Arial" ))
		(text "click" (rect 21 27 43 39)(font "Arial" ))
		(line (pt 0 32)(pt 16 32))
	)
	(port
		(pt 0 48)
		(input)
		(text "clock" (rect 0 0 25 12)(font "Arial" ))
		(text "clock" (rect 21 43 46 55)(font "Arial" ))
		(line (pt 0 48)(pt 16 48))
	)
	(port
		(pt 96 32)
		(output)
		(text "data" (rect 0 0 21 12)(font "Arial" ))
		(text "data" (rect 58 27 75 39)(font "Arial" ))
		(line (pt 96 32)(pt 80 32))
	)
	(drawing
		(rectangle (rect 16 16 80 80))
	)
)
(symbol
	(rect 1064 -80 1128 -32)
	(text "OR2" (rect 1 0 19 10)(font "Arial" (font_size 6)))
	(text "inst3" (rect 3 37 26 49)(font "Arial" ))
	(port
		(pt 0 32)
		(input)
		(text "IN2" (rect 2 23 19 35)(font "Courier New" (bold))(invisible))
		(text "IN2" (rect 2 23 19 35)(font "Courier New" (bold))(invisible))
		(line (pt 0 32)(pt 15 32))
	)
	(port
		(pt 0 16)
		(input)
		(text "IN1" (rect 2 7 19 19)(font "Courier New" (bold))(invisible))
		(text "IN1" (rect 2 7 19 19)(font "Courier New" (bold))(invisible))
		(line (pt 0 16)(pt 15 16))
	)
	(port
		(pt 64 24)
		(output)
		(text "OUT" (rect 48 15 65 27)(font "Courier New" (bold))(invisible))
		(text "OUT" (rect 48 15 62 27)(font "Courier New" (bold))(invisible))
		(line (pt 48 24)(pt 64 24))
	)
	(drawing
		(line (pt 14 36)(pt 25 36))
		(line (pt 14 13)(pt 25 13))
		(arc (pt 7 29)(pt 7 19)(rect -14 8 19 41))
		(arc (pt 49 24)(pt 25 13)(rect -6 13 57 76))
		(arc (pt 25 35)(pt 49 24)(rect -6 -27 57 36))
	)
)
(symbol
	(rect 1152 -472 1320 -344)
	(text "allclickreg" (rect 5 0 53 12)(font "Arial" ))
	(text "inst1" (rect 8 112 31 124)(font "Arial" ))
	(port
		(pt 0 32)
		(input)
		(text "channel[3..0]" (rect 0 0 63 12)(font "Arial" ))
		(text "channel[3..0]" (rect 21 27 84 39)(font "Arial" ))
		(line (pt 0 32)(pt 16 32)(line_width 3))
	)
	(port
		(pt 0 48)
		(input)
		(text "clk" (rect 0 0 14 12)(font "Arial" ))
		(text "clk" (rect 21 43 35 55)(font "Arial" ))
		(line (pt 0 48)(pt 16 48))
	)
	(port
		(pt 0 64)
		(input)
		(text "clear" (rect 0 0 23 12)(font "Arial" ))
		(text "clear" (rect 21 59 44 71)(font "Arial" ))
		(line (pt 0 64)(pt 16 64))
	)
	(port
		(pt 0 80)
		(input)
		(text "operate" (rect 0 0 36 12)(font "Arial" ))
		(text "operate" (rect 21 75 57 87)(font "Arial" ))
		(line (pt 0 80)(pt 16 80))
	)
	(port
		(pt 168 32)
		(output)
		(text "data[31..0]" (rect 0 0 53 12)(font "Arial" ))
		(text "data[31..0]" (rect 103 27 147 39)(font "Arial" ))
		(line (pt 168 32)(pt 152 32)(line_width 3))
	)
	(port
		(pt 168 48)
		(output)
		(text "ready" (rect 0 0 28 12)(font "Arial" ))
		(text "ready" (rect 124 43 147 55)(font "Arial" ))
		(line (pt 168 48)(pt 152 48))
	)
	(drawing
		(rectangle (rect 16 16 152 112))
	)
)
(symbol
	(rect 1648 -224 1784 -112)
	(text "lpm_mux1" (rect 42 2 112 18)(font "Arial" (font_size 10)))
	(text "inst27" (rect 8 96 37 108)(font "Arial" ))
	(port
		(pt 0 40)
		(input)
		(text "data3x[7..0]" (rect 0 0 67 14)(font "Arial" (font_size 8)))
		(text "data3x[7..0]" (rect 4 27 71 41)(font "Arial" (font_size 8)))
		(line (pt 0 40)(pt 64 40)(line_width 3))
	)
	(port
		(pt 0 56)
		(input)
		(text "data2x[7..0]" (rect 0 0 67 14)(font "Arial" (font_size 8)))
		(text "data2x[7..0]" (rect 4 43 71 57)(font "Arial" (font_size 8)))
		(line (pt 0 56)(pt 64 56)(line_width 3))
	)
	(port
		(pt 0 72)
		(input)
		(text "data1x[7..0]" (rect 0 0 67 14)(font "Arial" (font_size 8)))
		(text "data1x[7..0]" (rect 4 59 71 73)(font "Arial" (font_size 8)))
		(line (pt 0 72)(pt 64 72)(line_width 3))
	)
	(port
		(pt 0 88)
		(input)
		(text "data0x[7..0]" (rect 0 0 67 14)(font "Arial" (font_size 8)))
		(text "data0x[7..0]" (rect 4 75 71 89)(font "Arial" (font_size 8)))
		(line (pt 0 88)(pt 64 88)(line_width 3))
	)
	(port
		(pt 72 112)
		(input)
		(text "sel[1..0]" (rect 0 0 44 14)(font "Arial" (font_size 8)))
		(text "sel[1..0]" (rect 76 99 120 113)(font "Arial" (font_size 8)))
		(line (pt 72 112)(pt 72 100)(line_width 3))
	)
	(port
		(pt 136 64)
		(output)
		(text "result[7..0]" (rect 0 0 60 14)(font "Arial" (font_size 8)))
		(text "result[7..0]" (rect 82 51 132 65)(font "Arial" (font_size 8)))
		(line (pt 136 64)(pt 80 64)(line_width 3))
	)
	(drawing
		(line (pt 64 24)(pt 64 104))
		(line (pt 80 32)(pt 80 96))
		(line (pt 64 24)(pt 80 32))
		(line (pt 64 104)(pt 80 96))
	)
)
(symbol
	(rect 1368 -256 1528 -112)
	(text "dcfifo1" (rect 62 1 105 17)(font "Arial" (font_size 10)))
	(text "inst2" (rect 8 128 31 140)(font "Arial" ))
	(port
		(pt 0 32)
		(input)
		(text "data[31..0]" (rect 0 0 60 14)(font "Arial" (font_size 8)))
		(text "data[31..0]" (rect 20 26 80 40)(font "Arial" (font_size 8)))
		(line (pt 0 32)(pt 16 32)(line_width 3))
	)
	(port
		(pt 0 56)
		(input)
		(text "wrreq" (rect 0 0 35 14)(font "Arial" (font_size 8)))
		(text "wrreq" (rect 20 50 55 64)(font "Arial" (font_size 8)))
		(line (pt 0 56)(pt 16 56))
	)
	(port
		(pt 0 72)
		(input)
		(text "rdreq" (rect 0 0 30 14)(font "Arial" (font_size 8)))
		(text "rdreq" (rect 20 66 50 80)(font "Arial" (font_size 8)))
		(line (pt 0 72)(pt 16 72))
	)
	(port
		(pt 0 96)
		(input)
		(text "clock" (rect 0 0 29 14)(font "Arial" (font_size 8)))
		(text "clock" (rect 26 90 55 104)(font "Arial" (font_size 8)))
		(line (pt 0 96)(pt 16 96))
	)
	(port
		(pt 160 32)
		(output)
		(text "q[31..0]" (rect 0 0 42 14)(font "Arial" (font_size 8)))
		(text "q[31..0]" (rect 104 26 139 40)(font "Arial" (font_size 8)))
		(line (pt 160 32)(pt 144 32)(line_width 3))
	)
	(port
		(pt 160 56)
		(output)
		(text "empty" (rect 0 0 34 14)(font "Arial" (font_size 8)))
		(text "empty" (rect 111 50 139 64)(font "Arial" (font_size 8)))
		(line (pt 160 56)(pt 144 56))
	)
	(drawing
		(text "(ack)" (rect 51 67 75 79)(font "Arial" ))
		(text "32 bits x 128 words" (rect 63 116 158 128)(font "Arial" ))
		(line (pt 16 16)(pt 144 16))
		(line (pt 144 16)(pt 144 128))
		(line (pt 144 128)(pt 16 128))
		(line (pt 16 128)(pt 16 16))
		(line (pt 16 108)(pt 144 108))
		(line (pt 16 90)(pt 22 96))
		(line (pt 22 96)(pt 16 102))
	)
)
(symbol
	(rect 880 -632 976 -536)
	(text "clicklatch" (rect 5 0 51 12)(font "Arial" ))
	(text "inst19" (rect 8 80 37 92)(font "Arial" ))
	(port
		(pt 0 32)
		(input)
		(text "click" (rect 0 0 22 12)(font "Arial" ))
		(text "click" (rect 21 27 43 39)(font "Arial" ))
		(line (pt 0 32)(pt 16 32))
	)
	(port
		(pt 0 48)
		(input)
		(text "clock" (rect 0 0 25 12)(font "Arial" ))
		(text "clock" (rect 21 43 46 55)(font "Arial" ))
		(line (pt 0 48)(pt 16 48))
	)
	(port
		(pt 96 32)
		(output)
		(text "data" (rect 0 0 21 12)(font "Arial" ))
		(text "data" (rect 58 27 75 39)(font "Arial" ))
		(line (pt 96 32)(pt 80 32))
	)
	(drawing
		(rectangle (rect 16 16 80 80))
	)
)
(symbol
	(rect 888 -528 984 -432)
	(text "clicklatch" (rect 5 0 51 12)(font "Arial" ))
	(text "inst20" (rect 8 80 37 92)(font "Arial" ))
	(port
		(pt 0 32)
		(input)
		(text "click" (rect 0 0 22 12)(font "Arial" ))
		(text "click" (rect 21 27 43 39)(font "Arial" ))
		(line (pt 0 32)(pt 16 32))
	)
	(port
		(pt 0 48)
		(input)
		(text "clock" (rect 0 0 25 12)(font "Arial" ))
		(text "clock" (rect 21 43 46 55)(font "Arial" ))
		(line (pt 0 48)(pt 16 48))
	)
	(port
		(pt 96 32)
		(output)
		(text "data" (rect 0 0 21 12)(font "Arial" ))
		(text "data" (rect 58 27 75 39)(font "Arial" ))
		(line (pt 96 32)(pt 80 32))
	)
	(drawing
		(rectangle (rect 16 16 80 80))
	)
)
(symbol
	(rect 888 -424 984 -328)
	(text "clicklatch" (rect 5 0 51 12)(font "Arial" ))
	(text "inst21" (rect 8 80 37 92)(font "Arial" ))
	(port
		(pt 0 32)
		(input)
		(text "click" (rect 0 0 22 12)(font "Arial" ))
		(text "click" (rect 21 27 43 39)(font "Arial" ))
		(line (pt 0 32)(pt 16 32))
	)
	(port
		(pt 0 48)
		(input)
		(text "clock" (rect 0 0 25 12)(font "Arial" ))
		(text "clock" (rect 21 43 46 55)(font "Arial" ))
		(line (pt 0 48)(pt 16 48))
	)
	(port
		(pt 96 32)
		(output)
		(text "data" (rect 0 0 21 12)(font "Arial" ))
		(text "data" (rect 58 27 75 39)(font "Arial" ))
		(line (pt 96 32)(pt 80 32))
	)
	(drawing
		(rectangle (rect 16 16 80 80))
	)
)
(symbol
	(rect 888 -320 984 -224)
	(text "clicklatch" (rect 5 0 51 12)(font "Arial" ))
	(text "inst22" (rect 8 80 37 92)(font "Arial" ))
	(port
		(pt 0 32)
		(input)
		(text "click" (rect 0 0 22 12)(font "Arial" ))
		(text "click" (rect 21 27 43 39)(font "Arial" ))
		(line (pt 0 32)(pt 16 32))
	)
	(port
		(pt 0 48)
		(input)
		(text "clock" (rect 0 0 25 12)(font "Arial" ))
		(text "clock" (rect 21 43 46 55)(font "Arial" ))
		(line (pt 0 48)(pt 16 48))
	)
	(port
		(pt 96 32)
		(output)
		(text "data" (rect 0 0 21 12)(font "Arial" ))
		(text "data" (rect 58 27 75 39)(font "Arial" ))
		(line (pt 96 32)(pt 80 32))
	)
	(drawing
		(rectangle (rect 16 16 80 80))
	)
)
(symbol
	(rect 880 80 976 176)
	(text "clicklatch" (rect 5 0 51 12)(font "Arial" ))
	(text "inst23" (rect 8 80 37 92)(font "Arial" ))
	(port
		(pt 0 32)
		(input)
		(text "click" (rect 0 0 22 12)(font "Arial" ))
		(text "click" (rect 21 27 43 39)(font "Arial" ))
		(line (pt 0 32)(pt 16 32))
	)
	(port
		(pt 0 48)
		(input)
		(text "clock" (rect 0 0 25 12)(font "Arial" ))
		(text "clock" (rect 21 43 46 55)(font "Arial" ))
		(line (pt 0 48)(pt 16 48))
	)
	(port
		(pt 96 32)
		(output)
		(text "data" (rect 0 0 21 12)(font "Arial" ))
		(text "data" (rect 58 27 75 39)(font "Arial" ))
		(line (pt 96 32)(pt 80 32))
	)
	(drawing
		(rectangle (rect 16 16 80 80))
	)
)
(connector
	(text "dat[31..24]" (rect 1584 -200 1637 -188)(font "Arial" ))
	(pt 1648 -184)
	(pt 1584 -184)
	(bus)
)
(connector
	(text "dat[23..16]" (rect 1584 -184 1637 -172)(font "Arial" ))
	(pt 1648 -168)
	(pt 1584 -168)
	(bus)
)
(connector
	(text "dat[15..8]" (rect 1586 -168 1633 -156)(font "Arial" ))
	(pt 1648 -152)
	(pt 1584 -152)
	(bus)
)
(connector
	(text "dat[7..0]" (rect 1586 -152 1627 -140)(font "Arial" ))
	(pt 1648 -136)
	(pt 1584 -136)
	(bus)
)
(connector
	(pt 1536 -80)
	(pt 1368 -80)
)
(connector
	(pt 1368 -80)
	(pt 1368 -56)
)
(connector
	(pt 1368 -56)
	(pt 1376 -56)
)
(connector
	(pt 1432 8)
	(pt 1456 8)
)
(connector
	(pt 1432 -56)
	(pt 1432 8)
)
(connector
	(pt 1424 -56)
	(pt 1432 -56)
)
(connector
	(pt 1536 -200)
	(pt 1528 -200)
)
(connector
	(pt 1536 -80)
	(pt 1536 -200)
)
(connector
	(pt 1336 -184)
	(pt 1368 -184)
)
(connector
	(pt 1520 16)
	(pt 1544 16)
)
(connector
	(text "dat[31..0]" (rect 1530 -240 1577 -228)(font "Arial" ))
	(pt 1528 -224)
	(pt 1568 -224)
	(bus)
)
(connector
	(pt 608 -160)
	(pt 616 -160)
)
(connector
	(pt 608 -304)
	(pt 616 -304)
)
(connector
	(pt 608 -448)
	(pt 616 -448)
)
(connector
	(pt 608 -592)
	(pt 616 -592)
)
(connector
	(pt 416 -112)
	(pt 392 -112)
)
(connector
	(pt 504 -112)
	(pt 520 -112)
)
(connector
	(pt 392 -112)
	(pt 392 64)
)
(connector
	(pt 680 -312)
	(pt 696 -312)
)
(connector
	(pt 680 -456)
	(pt 696 -456)
)
(connector
	(pt 680 -168)
	(pt 696 -168)
)
(connector
	(pt 224 -216)
	(pt 312 -216)
)
(connector
	(pt 312 -216)
	(pt 312 -104)
)
(connector
	(pt 312 -104)
	(pt 320 -104)
)
(connector
	(pt 384 -96)
	(pt 416 -96)
)
(connector
	(pt 608 -592)
	(pt 608 -448)
)
(connector
	(pt 608 -448)
	(pt 608 -304)
)
(connector
	(pt 608 -304)
	(pt 608 -160)
)
(connector
	(pt 480 -128)
	(pt 520 -128)
)
(connector
	(pt 696 -496)
	(pt 720 -496)
)
(connector
	(pt 696 -312)
	(pt 696 -392)
)
(connector
	(pt 696 -392)
	(pt 720 -392)
)
(connector
	(pt 696 -456)
	(pt 696 -496)
)
(connector
	(pt 712 -480)
	(pt 720 -480)
)
(connector
	(pt 712 -376)
	(pt 720 -376)
)
(connector
	(pt 712 -584)
	(pt 720 -584)
)
(connector
	(pt 712 -192)
	(pt 872 -192)
)
(connector
	(pt 872 -584)
	(pt 880 -584)
)
(connector
	(pt 888 -480)
	(pt 872 -480)
)
(connector
	(pt 888 -376)
	(pt 872 -376)
)
(connector
	(text "ch1" (rect 994 -408 1011 -396)(font "Arial" ))
	(pt 984 -392)
	(pt 1024 -392)
)
(connector
	(pt 888 -392)
	(pt 816 -392)
)
(connector
	(text "ch2" (rect 994 -512 1011 -500)(font "Arial" ))
	(pt 984 -496)
	(pt 1016 -496)
)
(connector
	(pt 880 -600)
	(pt 816 -600)
)
(connector
	(text "ch3" (rect 986 -616 1003 -604)(font "Arial" ))
	(pt 976 -600)
	(pt 1016 -600)
)
(connector
	(pt 816 -496)
	(pt 888 -496)
)
(connector
	(pt 680 -600)
	(pt 720 -600)
)
(connector
	(pt 712 -480)
	(pt 712 -376)
)
(connector
	(pt 712 -584)
	(pt 712 -480)
)
(connector
	(pt 872 -584)
	(pt 872 -480)
)
(connector
	(pt 872 -480)
	(pt 872 -376)
)
(connector
	(pt 872 -272)
	(pt 872 -192)
)
(connector
	(pt 696 -168)
	(pt 696 -288)
)
(connector
	(pt 696 -288)
	(pt 720 -288)
)
(connector
	(pt 712 -272)
	(pt 720 -272)
)
(connector
	(pt 712 -376)
	(pt 712 -272)
)
(connector
	(pt 712 -272)
	(pt 712 -192)
)
(connector
	(pt 872 -272)
	(pt 888 -272)
)
(connector
	(text "ch0" (rect 994 -304 1011 -292)(font "Arial" ))
	(pt 984 -288)
	(pt 1016 -288)
)
(connector
	(pt 872 -376)
	(pt 872 -272)
)
(connector
	(pt 504 -112)
	(pt 504 24)
)
(connector
	(pt 376 24)
	(pt 504 24)
)
(connector
	(pt 504 24)
	(pt 1456 24)
)
(connector
	(pt 1368 -200)
	(pt 1328 -200)
)
(connector
	(pt 1328 -424)
	(pt 1320 -424)
)
(connector
	(pt 1328 -200)
	(pt 1328 -424)
)
(connector
	(text "ch[3..0]" (rect 1106 -456 1143 -444)(font "Arial" ))
	(pt 1096 -440)
	(pt 1152 -440)
	(bus)
)
(connector
	(pt 1144 -120)
	(pt 1144 -392)
)
(connector
	(pt 1152 -392)
	(pt 1144 -392)
)
(connector
	(pt 584 -120)
	(pt 608 -120)
)
(connector
	(pt 608 -120)
	(pt 1144 -120)
)
(connector
	(pt 1152 -408)
	(pt 1128 -408)
)
(connector
	(pt 1128 -408)
	(pt 1128 -56)
)
(connector
	(pt 1152 -424)
	(pt 1048 -424)
)
(connector
	(pt 712 64)
	(pt 1048 64)
)
(connector
	(pt 1048 -424)
	(pt 1048 -160)
)
(connector
	(pt 1048 -160)
	(pt 1048 64)
)
(connector
	(pt 1336 -184)
	(pt 1336 48)
)
(connector
	(pt 1336 48)
	(pt 1768 48)
)
(connector
	(pt 1544 104)
	(pt 1568 104)
)
(connector
	(pt 1720 -112)
	(pt 1720 88)
	(bus)
)
(connector
	(pt 1296 -160)
	(pt 1296 88)
)
(connector
	(pt 1296 88)
	(pt 1568 88)
)
(connector
	(pt 1720 88)
	(pt 1704 88)
	(bus)
)
(connector
	(pt 1768 104)
	(pt 1704 104)
)
(connector
	(pt 1768 48)
	(pt 1768 104)
)
(connector
	(pt 1048 -160)
	(pt 1296 -160)
)
(connector
	(pt 1296 -160)
	(pt 1368 -160)
)
(connector
	(pt 608 104)
	(pt 624 104)
)
(connector
	(pt 688 112)
	(pt 720 112)
)
(connector
	(pt 712 128)
	(pt 720 128)
)
(connector
	(pt 608 -160)
	(pt 608 -120)
)
(connector
	(pt 608 -120)
	(pt 608 104)
)
(connector
	(pt 712 -192)
	(pt 712 64)
)
(connector
	(pt 1784 -160)
	(pt 1824 -160)
	(bus)
)
(connector
	(pt 1544 -56)
	(pt 1544 16)
)
(connector
	(pt 1544 16)
	(pt 1544 104)
)
(connector
	(pt 1544 -56)
	(pt 1824 -56)
)
(connector
	(pt 1368 -224)
	(pt 1344 -224)
	(bus)
)
(connector
	(pt 1320 -440)
	(pt 1344 -440)
	(bus)
)
(connector
	(pt 1344 -224)
	(pt 1344 -440)
	(bus)
)
(connector
	(pt 1064 -48)
	(pt 1040 -48)
)
(connector
	(pt 1040 -48)
	(pt 1040 112)
)
(connector
	(pt 816 112)
	(pt 880 112)
)
(connector
	(pt 976 112)
	(pt 1040 112)
)
(connector
	(pt 880 128)
	(pt 864 128)
)
(connector
	(pt 864 128)
	(pt 864 192)
)
(connector
	(pt 864 192)
	(pt 712 192)
)
(connector
	(pt 712 64)
	(pt 712 128)
)
(connector
	(pt 712 128)
	(pt 712 192)
)
(connector
	(pt 584 -320)
	(pt 592 -320)
)
(connector
	(pt 592 -320)
	(pt 616 -320)
)
(connector
	(pt 584 -176)
	(pt 592 -176)
)
(connector
	(pt 592 -176)
	(pt 616 -176)
)
(connector
	(pt 416 -128)
	(pt 304 -128)
)
(connector
	(pt 304 -128)
	(pt 296 -128)
)
(connector
	(pt 296 24)
	(pt 304 24)
)
(connector
	(pt 304 24)
	(pt 328 24)
)
(connector
	(pt 296 -88)
	(pt 304 -88)
)
(connector
	(pt 304 -88)
	(pt 320 -88)
)
(connector
	(pt 584 -464)
	(pt 592 -464)
)
(connector
	(pt 592 -464)
	(pt 616 -464)
)
(connector
	(pt 584 -608)
	(pt 592 -608)
)
(connector
	(pt 592 -608)
	(pt 616 -608)
)
(connector
	(pt 296 64)
	(pt 304 64)
)
(connector
	(pt 304 64)
	(pt 392 64)
)
(connector
	(pt 392 64)
	(pt 712 64)
)
(connector
	(pt 296 -64)
	(pt 304 -64)
)
(connector
	(pt 304 -64)
	(pt 1064 -64)
)
(connector
	(pt 592 120)
	(pt 600 120)
)
(connector
	(pt 600 120)
	(pt 624 120)
)
(connector
	(pt 800 -288)
	(pt 816 -288)
)
(connector
	(pt 816 -288)
	(pt 888 -288)
)
(junction (pt 1296 -160))
(junction (pt 1544 16))
(junction (pt 608 -448))
(junction (pt 608 -304))
(junction (pt 608 -160))
(junction (pt 392 64))
(junction (pt 608 -120))
(junction (pt 712 64))
(junction (pt 712 -192))
(junction (pt 712 -480))
(junction (pt 712 -376))
(junction (pt 872 -272))
(junction (pt 872 -480))
(junction (pt 872 -376))
(junction (pt 712 -272))
(junction (pt 816 -288))
(junction (pt 504 24))
(junction (pt 1048 -160))
(junction (pt 712 128))
(junction (pt 592 -320))
(junction (pt 592 -176))
(junction (pt 304 -128))
(junction (pt 304 24))
(junction (pt 304 -88))
(junction (pt 592 -464))
(junction (pt 592 -608))
(junction (pt 304 64))
(junction (pt 304 -64))
(junction (pt 600 120))
